CONTAINER colorCorrection
{
	NAME colorCorrection;

	INCLUDE GVbase;
	GROUP ID_GVPROPERTIES {
	DEFAULT 1;
		GROUP GROUP_COLOR_CORRECTION {
		DEFAULT 1;
			REAL PARAM_GAMMA{EDITPORT; INPORT; CUSTOMGUI REALSLIDER; MINSLIDER 0; MAXSLIDER 5; MIN 0; STEP 0.01; }
			REAL PARAM_HUESHIFT{EDITPORT; INPORT; CUSTOMGUI REALSLIDER; MINSLIDER -1; MAXSLIDER 1; STEP 0.02; }
			REAL PARAM_SATURATION{EDITPORT; INPORT; CUSTOMGUI REALSLIDER; MINSLIDER 0; MAXSLIDER 5; MIN 0; STEP 0.01; }
			REAL PARAM_VIBRANCE{EDITPORT; INPORT; CUSTOMGUI REALSLIDER; MINSLIDER 0; MAXSLIDER 5; MIN 0; STEP 0.01; }
			REAL PARAM_CONTRAST{EDITPORT; INPORT; CUSTOMGUI REALSLIDER; MINSLIDER 0; MAXSLIDER 5; STEP 0.05; }
			REAL PARAM_CONTRASTPIVOT{EDITPORT; INPORT; CUSTOMGUI REALSLIDER; MINSLIDER 0; MAXSLIDER 1; STEP 0.01; }
			REAL PARAM_EXPOSURE{EDITPORT; INPORT; CUSTOMGUI REALSLIDER; MINSLIDER -10; MAXSLIDER 10; STEP 0.2; }
			COLOR PARAM_GAIN{EDITPORT; INPORT; }
			COLOR PARAM_OFFSET{EDITPORT; INPORT; }
			BOOL PARAM_INVERT{EDITPORT; INPORT;}
		}
		COLOR PARAM_INPUT{EDITPORT; INPORT; }
		REAL PARAM_MASK{EDITPORT; INPORT; CUSTOMGUI REALSLIDER; MINSLIDER 0; MAXSLIDER 1; STEP 0.01; }
		COLOR PARAM_OUTCOLOR{EDITPORT; OUTPORT;  CREATEPORT;}
		REAL PARAM_OUTCOLORR{EDITPORT; OUTPORT; CUSTOMGUI REALSLIDER; MINSLIDER 0; MAXSLIDER 1; STEP 0.01;  CREATEPORT;}
		REAL PARAM_OUTCOLORG{EDITPORT; OUTPORT; CUSTOMGUI REALSLIDER; MINSLIDER 0; MAXSLIDER 1; STEP 0.01;  CREATEPORT;}
		REAL PARAM_OUTCOLORB{EDITPORT; OUTPORT; CUSTOMGUI REALSLIDER; MINSLIDER 0; MAXSLIDER 1; STEP 0.01;  CREATEPORT;}
	}
}
