CONTAINER Decal
{
	NAME Decal;

	INCLUDE GVbase;
	GROUP ID_GVPROPERTIES {
	DEFAULT 1;
		GROUP GROUP_TEXTURES {
		DEFAULT 1;
			FILENAME PARAM_COLOR_TEXTURE{EDITPORT; INPORT; }
			LONG PARAM_COLOR_TEXTURE_META_COLORSPACE{ CYCLE{PARAM_COLOR_TEXTURE_META_COLORSPACE_AUTO; PARAM_COLOR_TEXTURE_META_COLORSPACE_SRGB; PARAM_COLOR_TEXTURE_META_COLORSPACE_REC__709; PARAM_COLOR_TEXTURE_META_COLORSPACE_LINEAR; }; EDITPORT; INPORT;}
			COLOR PARAM_BACKGROUND_COLOR{EDITPORT; INPORT; }
			FILENAME PARAM_FLOAT_TEXTURE{EDITPORT; INPORT; }
			LONG PARAM_FLOAT_TEXTURE_META_COLORSPACE{ CYCLE{PARAM_FLOAT_TEXTURE_META_COLORSPACE_AUTO; PARAM_FLOAT_TEXTURE_META_COLORSPACE_SRGB; PARAM_FLOAT_TEXTURE_META_COLORSPACE_REC__709; PARAM_FLOAT_TEXTURE_META_COLORSPACE_LINEAR; }; EDITPORT; INPORT;}
			REAL PARAM_BACKGROUND_VALUE{EDITPORT; INPORT; CUSTOMGUI REALSLIDER; MINSLIDER 0; MAXSLIDER 1; STEP 0.01; }
		}
		GROUP GROUP_TRANSFORMATION {
		DEFAULT 1;
			LONG PARAM_SPACE{ CYCLE{PARAM_SPACE_WORLD; PARAM_SPACE_OBJECT; }; EDITPORT; INPORT;}
		}
		MATRIX PARAM_PLACEMENTMATRIX{EDITPORT; PORTONLY; INPORT; }
		COLOR PARAM_OUTCOLOR{EDITPORT; OUTPORT;  CREATEPORT;}
		REAL PARAM_OUTALPHA{EDITPORT; OUTPORT; CUSTOMGUI REALSLIDER; MINSLIDER 0; MAXSLIDER 1; STEP 0.01;  CREATEPORT;}
		REAL PARAM_OUTFLOAT{EDITPORT; OUTPORT; CUSTOMGUI REALSLIDER; MINSLIDER 0; MAXSLIDER 1; STEP 0.01;  CREATEPORT;}
	}
}
