CONTAINER dlBoxNoise
{
	NAME dlBoxNoise;

	INCLUDE GVbase;
	GROUP ID_GVPROPERTIES {
	DEFAULT 1;
		GROUP GROUP_BOX {
		DEFAULT 1;
			REAL PARAM_SCALE{EDITPORT; INPORT; CUSTOMGUI REALSLIDER; MINSLIDER 0; MAXSLIDER 1; MIN 0; STEP 0.01; }
			REAL PARAM_SMOOTHNESS{EDITPORT; INPORT; CUSTOMGUI REALSLIDER; MINSLIDER 0; MAXSLIDER 1; MIN 0; MAX 1; STEP 0.01; }
			REAL PARAM_I_TIME{EDITPORT; INPORT; CUSTOMGUI REALSLIDER; MINSLIDER 0; MAXSLIDER 10; MIN 0; STEP 0.1; }
			LONG PARAM_SPACE{ CYCLE{PARAM_SPACE_WORLD; PARAM_SPACE_OBJECT; }; EDITPORT; INPORT;}
		}
		GROUP GROUP_COLORS {
		DEFAULT 1;
			GRADIENT PARAM_COLOR_COLORVALUE{COLOR; EDITPORT; INPORT; }
			LONG PARAM_COLOR_BLEND_MODE{ CYCLE{PARAM_COLOR_BLEND_MODE_ADD; PARAM_COLOR_BLEND_MODE_LIGHTEN__MAX_; PARAM_COLOR_BLEND_MODE_MULTIPLY; PARAM_COLOR_BLEND_MODE_DARKEN__MIN_; PARAM_COLOR_BLEND_MODE_OVERLAY; PARAM_COLOR_BLEND_MODE_DIFFERENCE; }; EDITPORT; INPORT;}
		}
		GROUP GROUP_DISTORTION {
		DEFAULT 1;
			COLOR PARAM_DISTORTION{EDITPORT; INPORT; }
			REAL PARAM_DISTORTION_INTENSITY{EDITPORT; INPORT; CUSTOMGUI REALSLIDER; MINSLIDER 0; MAXSLIDER 1; STEP 0.01; }
		}
		GROUP GROUP_LAYERS {
		DEFAULT 1;
			LONG PARAM_LAYERS{EDITPORT; INPORT; }
			REAL PARAM_LAYER_PERSISTENCE{EDITPORT; INPORT; CUSTOMGUI REALSLIDER; MINSLIDER 0; MAXSLIDER 1; MIN 0; STEP 0.01; }
			REAL PARAM_LAYER_SCALE{EDITPORT; INPORT; CUSTOMGUI REALSLIDER; MINSLIDER 0; MAXSLIDER 1; MIN 0; STEP 0.01; }
		}
		GROUP GROUP_ADJUST {
		DEFAULT 1;
			REAL PARAM_AMPLITUDE{EDITPORT; INPORT; CUSTOMGUI REALSLIDER; MINSLIDER 0; MAXSLIDER 1; MIN 0; STEP 0.01; }
			REAL PARAM_CONTRAST{EDITPORT; INPORT; CUSTOMGUI REALSLIDER; MINSLIDER 0; MAXSLIDER 1; MIN 0; STEP 0.01; }
			BOOL PARAM_INVERT{EDITPORT; INPORT;}
		}
		MATRIX PARAM_PLACEMENTMATRIX{EDITPORT; PORTONLY; INPORT; }
		COLOR PARAM_OUTCOLOR{EDITPORT; OUTPORT;  CREATEPORT;}
		REAL PARAM_OUTALPHA{EDITPORT; OUTPORT; CUSTOMGUI REALSLIDER; MINSLIDER 0; MAXSLIDER 1; STEP 0.01;  CREATEPORT;}
	}
}
