CONTAINER dlConstant
{
	NAME dlConstant;

	INCLUDE GVbase;
	GROUP ID_GVPROPERTIES {
	DEFAULT 1;
		GROUP GROUP_BASE {
		DEFAULT 1;
			COLOR PARAM_I_COLOR{EDITPORT; INPORT; }
			REAL PARAM_INTENSITY{EDITPORT; INPORT; CUSTOMGUI REALSLIDER; MINSLIDER 0; MAXSLIDER 10; MIN 0; STEP 0.1; }
			REAL PARAM_EXPOSURE{EDITPORT; INPORT; CUSTOMGUI REALSLIDER; MINSLIDER -10; MAXSLIDER 10; STEP 0.2; }
			REAL PARAM_OPACITY{EDITPORT; INPORT; CUSTOMGUI REALSLIDER; MINSLIDER 0; MAXSLIDER 1; MIN 0; MAX 1; STEP 0.01; }
			BOOL PARAM_OPACITY_CUTS_COLOR{EDITPORT; INPORT;}
			BOOL PARAM_CASTS_SHADOWS{EDITPORT; INPORT;}
			BOOL PARAM_DOUBLESIDED{EDITPORT; INPORT;}
			REAL PARAM_SPREAD{EDITPORT; INPORT; CUSTOMGUI REALSLIDER; MINSLIDER 0; MAXSLIDER 1; MIN 0; STEP 0.01; }
		}
		GROUP GROUP_CONTRIBUTIONS {
		DEFAULT 1;
			REAL PARAM_DIFFUSE_CONTRIBUTION{EDITPORT; INPORT; CUSTOMGUI REALSLIDER; MINSLIDER 0; MAXSLIDER 3; MIN 0; STEP 0.03; }
			REAL PARAM_REFLECTION_CONTRIBUTION{EDITPORT; INPORT; CUSTOMGUI REALSLIDER; MINSLIDER 0; MAXSLIDER 3; MIN 0; STEP 0.03; }
			REAL PARAM_REFRACTION_CONTRIBUTION{EDITPORT; INPORT; CUSTOMGUI REALSLIDER; MINSLIDER 0; MAXSLIDER 3; MIN 0; STEP 0.03; }
			REAL PARAM_VOLUME_CONTRIBUTION{EDITPORT; INPORT; CUSTOMGUI REALSLIDER; MINSLIDER 0; MAXSLIDER 3; MIN 0; STEP 0.03; }
		}
		COLOR PARAM_INCANDESCENCE_MULTIPLIER{EDITPORT; INPORT;  PORTONLY; }
		CLOSURE PARAM_AOVGROUP{ EDITPORT; INPORT; PORTONLY; SCALE_H;}
		CLOSURE PARAM_OUTCOLOR{ EDITPORT; OUTPORT; PORTONLY; CREATEPORT; SCALE_H;}
	}
}
