CONTAINER dlDisplacementBlend
{
	NAME dlDisplacementBlend;

	INCLUDE GVbase;
	GROUP ID_GVPROPERTIES {
	DEFAULT 1;
		GROUP GROUP_DISPLACEMENT {
		DEFAULT 1;
			REAL PARAM_DISPLACEMENT_1{EDITPORT; INPORT; CUSTOMGUI REALSLIDER; MINSLIDER 0; MAXSLIDER 1; STEP 0.01; }
			REAL PARAM_DISPLACEMENT_GAIN_1{EDITPORT; INPORT; CUSTOMGUI REALSLIDER; MINSLIDER 0; MAXSLIDER 2; MIN 0; STEP 0.02; }
			REAL PARAM_DISPLACEMENT_OFFSET_1{EDITPORT; INPORT; CUSTOMGUI REALSLIDER; MINSLIDER -1; MAXSLIDER 1; STEP 0.02; }
			REAL PARAM_DISPLACEMENT_2{EDITPORT; INPORT; CUSTOMGUI REALSLIDER; MINSLIDER 0; MAXSLIDER 1; STEP 0.01; }
			REAL PARAM_DISPLACEMENT_GAIN_2{EDITPORT; INPORT; CUSTOMGUI REALSLIDER; MINSLIDER 0; MAXSLIDER 2; MIN 0; STEP 0.02; }
			REAL PARAM_DISPLACEMENT_OFFSET_2{EDITPORT; INPORT; CUSTOMGUI REALSLIDER; MINSLIDER -1; MAXSLIDER 1; STEP 0.02; }
			REAL PARAM_DISPLACEMENT_3{EDITPORT; INPORT; CUSTOMGUI REALSLIDER; MINSLIDER 0; MAXSLIDER 1; STEP 0.01; }
			REAL PARAM_DISPLACEMENT_GAIN_3{EDITPORT; INPORT; CUSTOMGUI REALSLIDER; MINSLIDER 0; MAXSLIDER 2; MIN 0; STEP 0.02; }
			REAL PARAM_DISPLACEMENT_OFFSET_3{EDITPORT; INPORT; CUSTOMGUI REALSLIDER; MINSLIDER -1; MAXSLIDER 1; STEP 0.02; }
		}
		GROUP GROUP_BLENDING {
		DEFAULT 1;
			REAL PARAM_BLEND_SOFTNESS{EDITPORT; INPORT; CUSTOMGUI REALSLIDER; MINSLIDER 0; MAXSLIDER 1; MIN 0; MAX 1; STEP 0.01; }
			REAL PARAM_BLEND_NOISE_INTENSITY{EDITPORT; INPORT; CUSTOMGUI REALSLIDER; MINSLIDER 0; MAXSLIDER 1; MIN 0; STEP 0.01; }
			REAL PARAM_BLEND_NOISE_SCALE{EDITPORT; INPORT; CUSTOMGUI REALSLIDER; MINSLIDER 0; MAXSLIDER 2; MIN 0; STEP 0.02; }
		}
		MATRIX PARAM_PLACEMENTMATRIX{EDITPORT; PORTONLY; INPORT; }
		REAL PARAM_OUTDISPLACEMENT{EDITPORT; OUTPORT; CUSTOMGUI REALSLIDER; MINSLIDER 0; MAXSLIDER 1; STEP 0.01;  CREATEPORT;}
		REAL PARAM_OUTMASK1{EDITPORT; OUTPORT; CUSTOMGUI REALSLIDER; MINSLIDER 0; MAXSLIDER 1; STEP 0.01;  CREATEPORT;}
		REAL PARAM_OUTMASK2{EDITPORT; OUTPORT; CUSTOMGUI REALSLIDER; MINSLIDER 0; MAXSLIDER 1; STEP 0.01;  CREATEPORT;}
		REAL PARAM_OUTMASK3{EDITPORT; OUTPORT; CUSTOMGUI REALSLIDER; MINSLIDER 0; MAXSLIDER 1; STEP 0.01;  CREATEPORT;}
	}
}
