CONTAINER dlFacingRatio
{
	NAME dlFacingRatio;

	INCLUDE GVbase;
	GROUP ID_GVPROPERTIES {
	DEFAULT 1;
		GROUP GROUP_BUMP___NORMAL___DISPLACEMENT_MAP {
		DEFAULT 1;
			LONG PARAM_DISP_NORMAL_BUMP_TYPE{ CYCLE{PARAM_DISP_NORMAL_BUMP_TYPE_BUMP_MAP; PARAM_DISP_NORMAL_BUMP_TYPE_NORMAL_MAP__DIRECTX_; PARAM_DISP_NORMAL_BUMP_TYPE_NORMAL_MAP__OPENGL_; PARAM_DISP_NORMAL_BUMP_TYPE_DISPLACEMENT__0_0_CENTERED_; PARAM_DISP_NORMAL_BUMP_TYPE_DISPLACEMENT__0_5_CENTERED_; }; EDITPORT; INPORT;}
			COLOR PARAM_DISP_NORMAL_BUMP_VALUE{EDITPORT; INPORT; }
			REAL PARAM_DISP_NORMAL_BUMP_INTENSITY{EDITPORT; INPORT; CUSTOMGUI REALSLIDER; MINSLIDER 0; MAXSLIDER 1; STEP 0.01; }
		}
		COLOR PARAM_COLOR_EDGE{EDITPORT; INPORT; }
		COLOR PARAM_COLOR_CENTER{EDITPORT; INPORT; }
		REAL PARAM_BIAS{EDITPORT; INPORT; CUSTOMGUI REALSLIDER; MINSLIDER 0; MAXSLIDER 1; STEP 0.01; }
		REAL PARAM_CONTRAST{EDITPORT; INPORT; CUSTOMGUI REALSLIDER; MINSLIDER 0; MAXSLIDER 1; STEP 0.01; }
		COLOR PARAM_OUTCOLOR{EDITPORT; OUTPORT;  CREATEPORT;}
		REAL PARAM_OUTCOLORR{EDITPORT; OUTPORT; CUSTOMGUI REALSLIDER; MINSLIDER 0; MAXSLIDER 1; STEP 0.01;  CREATEPORT;}
		REAL PARAM_OUTCOLORG{EDITPORT; OUTPORT; CUSTOMGUI REALSLIDER; MINSLIDER 0; MAXSLIDER 1; STEP 0.01;  CREATEPORT;}
		REAL PARAM_OUTCOLORB{EDITPORT; OUTPORT; CUSTOMGUI REALSLIDER; MINSLIDER 0; MAXSLIDER 1; STEP 0.01;  CREATEPORT;}
		REAL PARAM_OUTALPHA{EDITPORT; OUTPORT; CUSTOMGUI REALSLIDER; MINSLIDER 0; MAXSLIDER 1; STEP 0.01;  CREATEPORT;}
	}
}
