CONTAINER dlFloatBlend
{
	NAME dlFloatBlend;

	INCLUDE GVbase;
	GROUP ID_GVPROPERTIES {
	DEFAULT 1;
		LONG PARAM_BLENDMODE{ CYCLE{PARAM_BLENDMODE_OVER; PARAM_BLENDMODE_MULTIPLY; PARAM_BLENDMODE_DARKEN__MIN_; PARAM_BLENDMODE_COLOR_BURN; PARAM_BLENDMODE_ADD; PARAM_BLENDMODE_SCREEN; PARAM_BLENDMODE_LIGHTEN__MAX_; PARAM_BLENDMODE_DODGE; PARAM_BLENDMODE_OVERLAY; PARAM_BLENDMODE_SOFT_LIGHT; PARAM_BLENDMODE_HARD_LIGHT; PARAM_BLENDMODE_ADD_SUBSTRACT; PARAM_BLENDMODE_SUBSTRACT; PARAM_BLENDMODE_DIFFERENCE; PARAM_BLENDMODE_DIVIDE; }; EDITPORT; INPORT;}
		REAL PARAM_BLEND{EDITPORT; INPORT; CUSTOMGUI REALSLIDER; MINSLIDER 0; MAXSLIDER 1; MIN 0; MAX 1; STEP 0.01; }
		REAL PARAM_FG{EDITPORT; INPORT; CUSTOMGUI REALSLIDER; MINSLIDER 0; MAXSLIDER 1; STEP 0.01; }
		REAL PARAM_BG{EDITPORT; INPORT; CUSTOMGUI REALSLIDER; MINSLIDER 0; MAXSLIDER 1; STEP 0.01; }
		REAL PARAM_OUTFLOAT{EDITPORT; OUTPORT; CUSTOMGUI REALSLIDER; MINSLIDER 0; MAXSLIDER 1; STEP 0.01;  CREATEPORT;}
	}
}
