CONTAINER dlGlass
{
	NAME dlGlass;

	INCLUDE GVbase;
	GROUP ID_GVPROPERTIES {
	DEFAULT 1;
		GROUP GROUP_REFLECTION {
		DEFAULT 1;
			COLOR PARAM_REFLECT_COLOR{EDITPORT; INPORT; }
			REAL PARAM_REFLECT_ROUGHNESS{EDITPORT; INPORT; CUSTOMGUI REALSLIDER; MINSLIDER 0; MAXSLIDER 1; MIN 0; MAX 1; STEP 0.01; }
			REAL PARAM_REFLECT_IOR{EDITPORT; INPORT; CUSTOMGUI REALSLIDER; MINSLIDER 1; MAXSLIDER 5; MIN 0; MAX 100; STEP 0.04; }
			BOOL PARAM_THIN_FILM{EDITPORT; INPORT;}
			REAL PARAM_FILM_THICKNESS{EDITPORT; INPORT; CUSTOMGUI REALSLIDER; MINSLIDER 0; MAXSLIDER 1; MIN 0; MAX 100; STEP 0.01; }
			REAL PARAM_FILM_IOR{EDITPORT; INPORT; CUSTOMGUI REALSLIDER; MINSLIDER 1; MAXSLIDER 5; MIN 0; MAX 10; STEP 0.04; }
		}
		GROUP GROUP_REFRACTION {
		DEFAULT 1;
			COLOR PARAM_I_COLOR{EDITPORT; INPORT; }
			REAL PARAM_REFRACT_ROUGHNESS{EDITPORT; INPORT; CUSTOMGUI REALSLIDER; MINSLIDER 0; MAXSLIDER 1; MIN 0; MAX 1; STEP 0.01; }
			REAL PARAM_REFRACT_IOR{EDITPORT; INPORT; CUSTOMGUI REALSLIDER; MINSLIDER 1; MAXSLIDER 5; MIN 0; STEP 0.04; }
			BOOL PARAM_TRANSMIT_AOVS{EDITPORT; INPORT;}
		}
		GROUP GROUP_VOLUMETRIC {
		DEFAULT 1;
			BOOL PARAM_VOLUMETRIC_ENABLE{EDITPORT; INPORT;}
			REAL PARAM_VOLUMETRIC_DENSITY{EDITPORT; INPORT; CUSTOMGUI REALSLIDER; MINSLIDER 0; MAXSLIDER 1; STEP 0.01; }
			COLOR PARAM_VOLUMETRIC_SCATTERING_COLOR{EDITPORT; INPORT; }
			COLOR PARAM_VOLUMETRIC_TRANSPARENCY_COLOR{EDITPORT; INPORT; }
		}
		GROUP GROUP_INCANDESCENCE {
		DEFAULT 1;
			COLOR PARAM_INCANDESCENCE{EDITPORT; INPORT; }
			REAL PARAM_INCANDESCENCE_INTENSITY{EDITPORT; INPORT; CUSTOMGUI REALSLIDER; MINSLIDER 0; MAXSLIDER 5; MIN 0; STEP 0.05; }
		}
		GROUP GROUP_BUMP___NORMAL___DISPLACEMENT_MAP {
		DEFAULT 1;
			LONG PARAM_DISP_NORMAL_BUMP_TYPE{ CYCLE{PARAM_DISP_NORMAL_BUMP_TYPE_BUMP_MAP; PARAM_DISP_NORMAL_BUMP_TYPE_NORMAL_MAP__DIRECTX_; PARAM_DISP_NORMAL_BUMP_TYPE_NORMAL_MAP__OPENGL_; PARAM_DISP_NORMAL_BUMP_TYPE_DISPLACEMENT__0_0_CENTERED_; PARAM_DISP_NORMAL_BUMP_TYPE_DISPLACEMENT__0_5_CENTERED_; }; EDITPORT; INPORT;}
			COLOR PARAM_DISP_NORMAL_BUMP_VALUE{EDITPORT; INPORT; }
			REAL PARAM_DISP_NORMAL_BUMP_INTENSITY{EDITPORT; INPORT; CUSTOMGUI REALSLIDER; MINSLIDER 0; MAXSLIDER 1; STEP 0.01; }
		}
		GROUP GROUP_GEOMETRY {
		DEFAULT 1;
			REAL PARAM_OCCLUSION_DISTANCE{EDITPORT; INPORT; CUSTOMGUI REALSLIDER; MINSLIDER 0; MAXSLIDER 1; STEP 0.01; }
		}
		COLOR PARAM_INCANDESCENCE_MULTIPLIER{EDITPORT; INPORT;  PORTONLY; }
		CLOSURE PARAM_AOVGROUP{ EDITPORT; INPORT; PORTONLY; SCALE_H;}
		CLOSURE PARAM_OUTCOLOR{ EDITPORT; OUTPORT; PORTONLY; CREATEPORT; SCALE_H;}
	}
}
