CONTAINER dlHairAndFur
{
	NAME dlHairAndFur;

	INCLUDE GVbase;
	GROUP ID_GVPROPERTIES {
	DEFAULT 1;
		GROUP GROUP_COLOR {
		DEFAULT 1;
			REAL PARAM_EUMELANINE{EDITPORT; INPORT; CUSTOMGUI REALSLIDER; MINSLIDER 0; MAXSLIDER 1; MIN 0; MAX 1; STEP 0.01; }
			REAL PARAM_PHENOMELANINE{EDITPORT; INPORT; CUSTOMGUI REALSLIDER; MINSLIDER 0; MAXSLIDER 1; MIN 0; MAX 1; STEP 0.01; }
			COLOR PARAM_I_COLOR{EDITPORT; INPORT; }
			REAL PARAM_DYE_WEIGHT{EDITPORT; INPORT; CUSTOMGUI REALSLIDER; MINSLIDER 0; MAXSLIDER 1; MIN 0; MAX 1; STEP 0.01; }
		}
		GROUP GROUP_LOOK {
		DEFAULT 1;
			REAL PARAM_SPECULAR_LEVEL{EDITPORT; INPORT; CUSTOMGUI REALSLIDER; MINSLIDER 0; MAXSLIDER 1; MIN 0; STEP 0.01; }
			REAL PARAM_LONGITUDINAL_ROUGHNESS{EDITPORT; INPORT; CUSTOMGUI REALSLIDER; MINSLIDER 0; MAXSLIDER 1; MIN 0; MAX 1; STEP 0.01; }
			REAL PARAM_AZIMUTHAL_ROUGHNESS{EDITPORT; INPORT; CUSTOMGUI REALSLIDER; MINSLIDER 0; MAXSLIDER 1; MIN 0; MAX 1; STEP 0.01; }
			REAL PARAM_MEDULLA{EDITPORT; INPORT; CUSTOMGUI REALSLIDER; MINSLIDER 0; MAXSLIDER 1; MIN 0; MAX 1; STEP 0.01; }
			REAL PARAM_SYNTHETIC{EDITPORT; INPORT; CUSTOMGUI REALSLIDER; MINSLIDER 0; MAXSLIDER 1; MIN 0; MAX 1; STEP 0.01; }
		}
		GROUP GROUP_VARIATION {
		DEFAULT 1;
			REAL PARAM_VARIATION_MELANIN{EDITPORT; INPORT; CUSTOMGUI REALSLIDER; MINSLIDER 0; MAXSLIDER 1; MIN 0; MAX 1; STEP 0.01; }
			REAL PARAM_VARIATION_MELANIN_RED{EDITPORT; INPORT; CUSTOMGUI REALSLIDER; MINSLIDER 0; MAXSLIDER 1; MIN 0; MAX 1; STEP 0.01; }
			REAL PARAM_VARIATION_WHITE_HAIR{EDITPORT; INPORT; CUSTOMGUI REALSLIDER; MINSLIDER 0; MAXSLIDER 1; MIN 0; MAX 1; STEP 0.01; }
			REAL PARAM_VARIATION_DYE_HUE{EDITPORT; INPORT; CUSTOMGUI REALSLIDER; MINSLIDER 0; MAXSLIDER 1; MIN 0; MAX 1; STEP 0.01; }
			REAL PARAM_VARIATION_DYE_SATURATION{EDITPORT; INPORT; CUSTOMGUI REALSLIDER; MINSLIDER 0; MAXSLIDER 1; MIN 0; MAX 1; STEP 0.01; }
			REAL PARAM_VARIATION_DYE_VALUE{EDITPORT; INPORT; CUSTOMGUI REALSLIDER; MINSLIDER 0; MAXSLIDER 1; MIN 0; MAX 1; STEP 0.01; }
			REAL PARAM_VARIATION_ROUGHNESS{EDITPORT; INPORT; CUSTOMGUI REALSLIDER; MINSLIDER 0; MAXSLIDER 1; MIN 0; MAX 1; STEP 0.01; }
			REAL PARAM_VARIATION_SPECULAR_LEVEL{EDITPORT; INPORT; CUSTOMGUI REALSLIDER; MINSLIDER 0; MAXSLIDER 1; MIN 0; MAX 1; STEP 0.01; }
		}
		GROUP GROUP_BOOST {
		DEFAULT 1;
			REAL PARAM_BOOST_GLOSSINESS{EDITPORT; INPORT; CUSTOMGUI REALSLIDER; MINSLIDER 0; MAXSLIDER 1; MIN 0; MAX 1; STEP 0.01; }
			REAL PARAM_BOOST_SPECULAR{EDITPORT; INPORT; CUSTOMGUI REALSLIDER; MINSLIDER 0; MAXSLIDER 1; MIN 0; MAX 1; STEP 0.01; }
			REAL PARAM_BOOST_TRANSMISSION{EDITPORT; INPORT; CUSTOMGUI REALSLIDER; MINSLIDER 0; MAXSLIDER 1; MIN 0; MAX 1; STEP 0.01; }
		}
		GROUP GROUP_GEOMETRY {
		DEFAULT 1;
			REAL PARAM_OCCLUSION_DISTANCE{EDITPORT; INPORT; CUSTOMGUI REALSLIDER; MINSLIDER 0; MAXSLIDER 1; STEP 0.01; }
		}
		CLOSURE PARAM_AOVGROUP{ EDITPORT; INPORT; PORTONLY; SCALE_H;}
		CLOSURE PARAM_OUTCOLOR{ EDITPORT; OUTPORT; PORTONLY; CREATEPORT; SCALE_H;}
	}
}
