CONTAINER dlLayeredMaterial
{
	NAME dlLayeredMaterial;

	INCLUDE GVbase;
	GROUP ID_GVPROPERTIES {
	DEFAULT 1;
		CLOSURE PARAM_I_COLOR{ EDITPORT; INPORT; PORTONLY; SCALE_H;}
		REAL PARAM_TOP_MASK{EDITPORT; INPORT; CUSTOMGUI REALSLIDER; MINSLIDER 0; MAXSLIDER 1; STEP 0.01; }
		CLOSURE PARAM_MIDDLE_LAYER{ EDITPORT; INPORT; PORTONLY; SCALE_H;}
		REAL PARAM_MIDDLE_MASK{EDITPORT; INPORT; CUSTOMGUI REALSLIDER; MINSLIDER 0; MAXSLIDER 1; STEP 0.01; }
		CLOSURE PARAM_BOTTOM_LAYER{ EDITPORT; INPORT; PORTONLY; SCALE_H;}
		REAL PARAM_BOTTOM_MASK{EDITPORT; INPORT; CUSTOMGUI REALSLIDER; MINSLIDER 0; MAXSLIDER 1; STEP 0.01; }
		CLOSURE PARAM_AOVGROUP{ EDITPORT; INPORT; PORTONLY; SCALE_H;}
		CLOSURE PARAM_OUTCOLOR{ EDITPORT; OUTPORT; PORTONLY; CREATEPORT; SCALE_H;}
	}
}
