CONTAINER dlMetal
{
	NAME dlMetal;

	INCLUDE GVbase;
	GROUP ID_GVPROPERTIES {
	DEFAULT 1;
		GROUP GROUP_COATING {
		DEFAULT 1;
			REAL PARAM_COATING_THICKNESS{EDITPORT; INPORT; CUSTOMGUI REALSLIDER; MINSLIDER 0; MAXSLIDER 1; MIN 0; MAX 1; STEP 0.01; }
			COLOR PARAM_COATING_COLOR{EDITPORT; INPORT; }
			REAL PARAM_COATING_ROUGHNESS{EDITPORT; INPORT; CUSTOMGUI REALSLIDER; MINSLIDER 0; MAXSLIDER 1; MIN 0; MAX 1; STEP 0.01; }
			REAL PARAM_COATING_SPECULAR_LEVEL{EDITPORT; INPORT; CUSTOMGUI REALSLIDER; MINSLIDER 0; MAXSLIDER 1; MIN 0; STEP 0.01; }
		}
		GROUP GROUP_METAL_LAYER {
		DEFAULT 1;
			COLOR PARAM_I_COLOR{EDITPORT; INPORT; }
			COLOR PARAM_EDGE_COLOR{EDITPORT; INPORT; }
			REAL PARAM_ROUGHNESS{EDITPORT; INPORT; CUSTOMGUI REALSLIDER; MINSLIDER 0; MAXSLIDER 1; MIN 0; MAX 1; STEP 0.01; }
			REAL PARAM_ANISOTROPY{EDITPORT; INPORT; CUSTOMGUI REALSLIDER; MINSLIDER 0; MAXSLIDER 1; MIN -1; MAX 1; STEP 0.02; }
			COLOR PARAM_ANISOTROPY_DIRECTION{EDITPORT; INPORT; }
			REAL PARAM_OPACITY{EDITPORT; INPORT; CUSTOMGUI REALSLIDER; MINSLIDER 0; MAXSLIDER 1; MIN 0; MAX 1; STEP 0.01; }
		}
		GROUP GROUP_THIN_FILM {
		DEFAULT 1;
			REAL PARAM_THIN_FILM_THICKNESS{EDITPORT; INPORT; CUSTOMGUI REALSLIDER; MINSLIDER 0; MAXSLIDER 1; MIN 0; STEP 0.01; }
			REAL PARAM_THIN_FILM_IOR{EDITPORT; INPORT; CUSTOMGUI REALSLIDER; MINSLIDER 1; MAXSLIDER 5; MIN 1; STEP 0.04; }
		}
		GROUP GROUP_BUMP___NORMAL___DISPLACEMENT_MAP {
		DEFAULT 1;
			LONG PARAM_DISP_NORMAL_BUMP_TYPE{ CYCLE{PARAM_DISP_NORMAL_BUMP_TYPE_BUMP_MAP; PARAM_DISP_NORMAL_BUMP_TYPE_NORMAL_MAP__DIRECTX_; PARAM_DISP_NORMAL_BUMP_TYPE_NORMAL_MAP__OPENGL_; PARAM_DISP_NORMAL_BUMP_TYPE_DISPLACEMENT__0_0_CENTERED_; PARAM_DISP_NORMAL_BUMP_TYPE_DISPLACEMENT__0_5_CENTERED_; }; EDITPORT; INPORT;}
			COLOR PARAM_DISP_NORMAL_BUMP_VALUE{EDITPORT; INPORT; }
			REAL PARAM_DISP_NORMAL_BUMP_INTENSITY{EDITPORT; INPORT; CUSTOMGUI REALSLIDER; MINSLIDER 0; MAXSLIDER 1; STEP 0.01; }
			LONG PARAM_NORMAL_BUMP_AFFECT_LAYER{ CYCLE{PARAM_NORMAL_BUMP_AFFECT_LAYER_BOTH_LAYERS; PARAM_NORMAL_BUMP_AFFECT_LAYER_COATING_LAYER; PARAM_NORMAL_BUMP_AFFECT_LAYER_BASE_LAYER; }; EDITPORT; INPORT;}
		}
		GROUP GROUP_GEOMETRY {
		DEFAULT 1;
			REAL PARAM_OCCLUSION_DISTANCE{EDITPORT; INPORT; CUSTOMGUI REALSLIDER; MINSLIDER 0; MAXSLIDER 1; STEP 0.01; }
		}
		CLOSURE PARAM_AOVGROUP{ EDITPORT; INPORT; PORTONLY; SCALE_H;}
		CLOSURE PARAM_OUTCOLOR{ EDITPORT; OUTPORT; PORTONLY; CREATEPORT; SCALE_H;}
	}
}
