CONTAINER dlNoise
{
	NAME dlNoise;

	INCLUDE GVbase;
	GROUP ID_GVPROPERTIES {
	DEFAULT 1;
		GROUP GROUP_NOISE {
		DEFAULT 1;
			LONG PARAM_NOISE_TYPE{ CYCLE{PARAM_NOISE_TYPE_PERLIN; PARAM_NOISE_TYPE_SIMPLEX; PARAM_NOISE_TYPE_GABOR; }; EDITPORT; INPORT;}
			LONG PARAM_NOISE_DIMENSION{ CYCLE{PARAM_NOISE_DIMENSION_3D; PARAM_NOISE_DIMENSION_2D; }; EDITPORT; INPORT;}
			REAL PARAM_SCALE{EDITPORT; INPORT; CUSTOMGUI REALSLIDER; MINSLIDER 0; MAXSLIDER 2; MIN 0; STEP 0.02; }
			REAL PARAM_I_TIME{EDITPORT; INPORT; CUSTOMGUI REALSLIDER; MINSLIDER 0; MAXSLIDER 10; MIN 0; STEP 0.1; }
			LONG PARAM_SPACE{ CYCLE{PARAM_SPACE_WORLD; PARAM_SPACE_OBJECT; }; EDITPORT; INPORT;}
		}
		GROUP GROUP_GABOR {
		DEFAULT 1;
			LONG PARAM_GABOR_TYPE{ CYCLE{PARAM_GABOR_TYPE_ISOTROPIC; PARAM_GABOR_TYPE_ANISOTROPIC; PARAM_GABOR_TYPE_ANISOTROPIC_HYBRID; }; EDITPORT; INPORT;}
			COLOR PARAM_GABOR_DIRECTION{EDITPORT; INPORT; }
			REAL PARAM_GABOR_STRIPES{EDITPORT; INPORT; CUSTOMGUI REALSLIDER; MINSLIDER 0; MAXSLIDER 1; MIN 0; MAX 1; STEP 0.01; }
		}
		GROUP GROUP_LAYERS {
		DEFAULT 1;
			LONG PARAM_LAYERS{EDITPORT; INPORT; }
			REAL PARAM_LAYER_PERSISTENCE{EDITPORT; INPORT; CUSTOMGUI REALSLIDER; MINSLIDER 0; MAXSLIDER 1; MIN 0; STEP 0.01; }
			REAL PARAM_LAYER_SCALE{EDITPORT; INPORT; CUSTOMGUI REALSLIDER; MINSLIDER 0; MAXSLIDER 1; MIN 0; STEP 0.01; }
			REAL PARAM_LAYER_CONTRAST{EDITPORT; INPORT; CUSTOMGUI REALSLIDER; MINSLIDER 0; MAXSLIDER 5; MIN 0; STEP 0.05; }
			LONG PARAM_LAYER_INFLECTION{ CYCLE{PARAM_LAYER_INFLECTION_OFF; PARAM_LAYER_INFLECTION_ON__SHARP_; PARAM_LAYER_INFLECTION_ON__SOFT_; }; EDITPORT; INPORT;}
			LONG PARAM_LAYER_BLEND_MODE{ CYCLE{PARAM_LAYER_BLEND_MODE_ADD; PARAM_LAYER_BLEND_MODE_TERRAIN; PARAM_LAYER_BLEND_MODE_MAX__SHARP_; PARAM_LAYER_BLEND_MODE_MAX__SOFT_; }; EDITPORT; INPORT;}
		}
		GROUP GROUP_DISTORTION {
		DEFAULT 1;
			COLOR PARAM_DISTORTION{EDITPORT; INPORT; }
			REAL PARAM_DISTORTION_INTENSITY{EDITPORT; INPORT; CUSTOMGUI REALSLIDER; MINSLIDER 0; MAXSLIDER 1; STEP 0.01; }
			REAL PARAM_SELF_DISTORTION{EDITPORT; INPORT; CUSTOMGUI REALSLIDER; MINSLIDER 0; MAXSLIDER 1; MIN 0; STEP 0.01; }
			REAL PARAM_SELF_DISTORTION_SCALE{EDITPORT; INPORT; CUSTOMGUI REALSLIDER; MINSLIDER 0; MAXSLIDER 2; MIN 0; STEP 0.02; }
			REAL PARAM_SELF_DISTORTION_ACCUM{EDITPORT; INPORT; CUSTOMGUI REALSLIDER; MINSLIDER 0; MAXSLIDER 1; MIN 0; STEP 0.01; }
		}
		GROUP GROUP_ADJUST {
		DEFAULT 1;
			LONG PARAM_NOISE_CHANNELS{ CYCLE{PARAM_NOISE_CHANNELS_GRAY; PARAM_NOISE_CHANNELS_RGB; }; EDITPORT; INPORT;}
			LONG PARAM_NOISE_RANGE{ CYCLE{PARAM_NOISE_RANGE_0_TO_1; PARAM_NOISE_RANGE__1_TO_1; }; EDITPORT; INPORT;}
			REAL PARAM_FILTERING{EDITPORT; INPORT; CUSTOMGUI REALSLIDER; MINSLIDER 0; MAXSLIDER 2; MIN 0; STEP 0.02; }
			REAL PARAM_AMPLITUDE{EDITPORT; INPORT; CUSTOMGUI REALSLIDER; MINSLIDER 0; MAXSLIDER 2; MIN 0; STEP 0.02; }
			REAL PARAM_OFFSET{EDITPORT; INPORT; CUSTOMGUI REALSLIDER; MINSLIDER -1; MAXSLIDER 1; STEP 0.02; }
			REAL PARAM_CLAMP_SOFTNESS{EDITPORT; INPORT; CUSTOMGUI REALSLIDER; MINSLIDER 0; MAXSLIDER 1; MIN 0; STEP 0.01; }
			REAL PARAM_CONTRAST{EDITPORT; INPORT; CUSTOMGUI REALSLIDER; MINSLIDER 0; MAXSLIDER 5; MIN 0; STEP 0.05; }
			BOOL PARAM_INVERT{EDITPORT; INPORT;}
		}
		MATRIX PARAM_PLACEMENTMATRIX{EDITPORT; PORTONLY; INPORT; }
		COLOR PARAM_OUTCOLOR{EDITPORT; OUTPORT;  CREATEPORT;}
		REAL PARAM_OUTALPHA{EDITPORT; OUTPORT; CUSTOMGUI REALSLIDER; MINSLIDER 0; MAXSLIDER 1; STEP 0.01;  CREATEPORT;}
		COLOR PARAM_OUTMASK{EDITPORT; OUTPORT;  CREATEPORT;}
	}
}
