CONTAINER dlPrincipled
{
	NAME dlPrincipled;

	INCLUDE GVbase;
	GROUP ID_GVPROPERTIES {
	DEFAULT 1;
		GROUP GROUP_BASE {
		DEFAULT 1;
			COLOR PARAM_I_COLOR{EDITPORT; INPORT; }
			REAL PARAM_ROUGHNESS{EDITPORT; INPORT; CUSTOMGUI REALSLIDER; MINSLIDER 0; MAXSLIDER 1; MIN 0; MAX 1; STEP 0.01; }
			REAL PARAM_SPECULAR_LEVEL{EDITPORT; INPORT; CUSTOMGUI REALSLIDER; MINSLIDER 0; MAXSLIDER 1; MIN 0; STEP 0.01; }
			REAL PARAM_METALLIC{EDITPORT; INPORT; CUSTOMGUI REALSLIDER; MINSLIDER 0; MAXSLIDER 1; MIN 0; MAX 1; STEP 0.01; }
			BOOL PARAM_REFLECT_AOVS{EDITPORT; INPORT;}
			REAL PARAM_ANISOTROPY{EDITPORT; INPORT; CUSTOMGUI REALSLIDER; MINSLIDER 0; MAXSLIDER 1; MIN -1; MAX 1; STEP 0.02; }
			COLOR PARAM_ANISOTROPY_DIRECTION{EDITPORT; INPORT; }
			REAL PARAM_OPACITY{EDITPORT; INPORT; CUSTOMGUI REALSLIDER; MINSLIDER 0; MAXSLIDER 1; MIN 0; MAX 1; STEP 0.01; }
		}
		GROUP GROUP_COATING {
		DEFAULT 1;
			REAL PARAM_COATING_THICKNESS{EDITPORT; INPORT; CUSTOMGUI REALSLIDER; MINSLIDER 0; MAXSLIDER 1; MIN 0; MAX 1; STEP 0.01; }
			COLOR PARAM_COATING_COLOR{EDITPORT; INPORT; }
			REAL PARAM_COATING_ROUGHNESS{EDITPORT; INPORT; CUSTOMGUI REALSLIDER; MINSLIDER 0; MAXSLIDER 1; MIN 0; MAX 1; STEP 0.01; }
			REAL PARAM_COATING_SPECULAR_LEVEL{EDITPORT; INPORT; CUSTOMGUI REALSLIDER; MINSLIDER 0; MAXSLIDER 1; MIN 0; MAX 1; STEP 0.01; }
		}
		GROUP GROUP_SUBSURFACE {
		DEFAULT 1;
			REAL PARAM_SSS_WEIGHT{EDITPORT; INPORT; CUSTOMGUI REALSLIDER; MINSLIDER 0; MAXSLIDER 1; MIN 0; MAX 1; STEP 0.01; }
			COLOR PARAM_SSS_COLOR{EDITPORT; INPORT; }
			REAL PARAM_SSS_ANISOTROPY{EDITPORT; INPORT; CUSTOMGUI REALSLIDER; MINSLIDER 0; MAXSLIDER 1; MIN -1; MAX 1; STEP 0.02; }
			REAL PARAM_SSS_SCALE{EDITPORT; INPORT; CUSTOMGUI REALSLIDER; MINSLIDER 0; MAXSLIDER 10; MIN 0; MAX 1000; STEP 0.1; }
			BOOL PARAM_SSS_INTERNAL_LIGHTING{EDITPORT; INPORT;}
			BOOL PARAM_SSS_SIMPLE_COLOR_MODEL{EDITPORT; INPORT;}
			STRING PARAM_SSS_MERGE_SET{EDITPORT; INPORT; }
			BOOL PARAM_SSS_DOMINANT_MATERIAL{EDITPORT; INPORT;}
			BOOL PARAM_SSS_DOUBLE_SIDED{EDITPORT; INPORT;}
		}
		GROUP GROUP_SHEEN {
		DEFAULT 1;
			REAL PARAM_SHEEN_LEVEL{EDITPORT; INPORT; CUSTOMGUI REALSLIDER; MINSLIDER 0; MAXSLIDER 1; MIN 0; MAX 1; STEP 0.01; }
			REAL PARAM_SHEEN_ROUGHNESS{EDITPORT; INPORT; CUSTOMGUI REALSLIDER; MINSLIDER 0; MAXSLIDER 1; MIN 0; MAX 1; STEP 0.01; }
			COLOR PARAM_SHEEN_COLOR{EDITPORT; INPORT; }
		}
		GROUP GROUP_REFRACTION {
		DEFAULT 1;
			REAL PARAM_REFRACT_WEIGHT{EDITPORT; INPORT; CUSTOMGUI REALSLIDER; MINSLIDER 0; MAXSLIDER 1; MIN 0; MAX 1; STEP 0.01; }
			COLOR PARAM_REFRACT_COLOR{EDITPORT; INPORT; }
			REAL PARAM_REFRACT_IOR{EDITPORT; INPORT; CUSTOMGUI REALSLIDER; MINSLIDER 1; MAXSLIDER 5; MIN 1; STEP 0.04; }
			REAL PARAM_REFRACT_ROUGHNESS{EDITPORT; INPORT; CUSTOMGUI REALSLIDER; MINSLIDER 0; MAXSLIDER 1; MIN 0; MAX 1; STEP 0.01; }
			BOOL PARAM_TRANSMIT_AOVS{EDITPORT; INPORT;}
			LONG PARAM_VOLUMETRIC_ENABLE{EDITPORT; INPORT; }
			REAL PARAM_VOLUMETRIC_DENSITY{EDITPORT; INPORT; CUSTOMGUI REALSLIDER; MINSLIDER 0; MAXSLIDER 1; MIN 0; STEP 0.01; }
			COLOR PARAM_VOLUMETRIC_SCATTERING_COLOR{EDITPORT; INPORT; }
			COLOR PARAM_VOLUMETRIC_TRANSPARENCY_COLOR{EDITPORT; INPORT; }
		}
		GROUP GROUP_INCANDESCENCE {
		DEFAULT 1;
			COLOR PARAM_INCANDESCENCE{EDITPORT; INPORT; }
			REAL PARAM_INCANDESCENCE_INTENSITY{EDITPORT; INPORT; CUSTOMGUI REALSLIDER; MINSLIDER 0; MAXSLIDER 10; MIN 0; STEP 0.1; }
		}
		GROUP GROUP_BUMP___NORMAL___DISPLACEMENT_MAP {
		DEFAULT 1;
			LONG PARAM_DISP_NORMAL_BUMP_TYPE{ CYCLE{PARAM_DISP_NORMAL_BUMP_TYPE_BUMP_MAP; PARAM_DISP_NORMAL_BUMP_TYPE_NORMAL_MAP__DIRECTX_; PARAM_DISP_NORMAL_BUMP_TYPE_NORMAL_MAP__OPENGL_; PARAM_DISP_NORMAL_BUMP_TYPE_DISPLACEMENT__0_0_CENTERED_; PARAM_DISP_NORMAL_BUMP_TYPE_DISPLACEMENT__0_5_CENTERED_; }; EDITPORT; INPORT;}
			COLOR PARAM_DISP_NORMAL_BUMP_VALUE{EDITPORT; INPORT; }
			REAL PARAM_DISP_NORMAL_BUMP_INTENSITY{EDITPORT; INPORT; CUSTOMGUI REALSLIDER; MINSLIDER 0; MAXSLIDER 1; STEP 0.01; }
			LONG PARAM_NORMAL_BUMP_AFFECT_LAYER{ CYCLE{PARAM_NORMAL_BUMP_AFFECT_LAYER_BOTH_LAYERS; PARAM_NORMAL_BUMP_AFFECT_LAYER_COATING_LAYER; PARAM_NORMAL_BUMP_AFFECT_LAYER_BASE_LAYER; }; EDITPORT; INPORT;}
		}
		GROUP GROUP_GEOMETRY {
		DEFAULT 1;
			REAL PARAM_OCCLUSION_DISTANCE{EDITPORT; INPORT; CUSTOMGUI REALSLIDER; MINSLIDER 0; MAXSLIDER 1; STEP 0.01; }
		}
		COLOR PARAM_INCANDESCENCE_MULTIPLIER{EDITPORT; INPORT;  PORTONLY; }
		CLOSURE PARAM_AOVGROUP{ EDITPORT; INPORT; PORTONLY; SCALE_H;}
		CLOSURE PARAM_OUTCOLOR{ EDITPORT; OUTPORT; PORTONLY; CREATEPORT; SCALE_H;}
	}
}
