CONTAINER dlPrimitiveAttribute
{
	NAME dlPrimitiveAttribute;

	INCLUDE GVbase;
	GROUP ID_GVPROPERTIES {
	DEFAULT 1;
		STRING PARAM_ATTRIBUTE_NAME{EDITPORT; INPORT; }
		LONG PARAM_ATTRIBUTE_TYPE{ CYCLE{PARAM_ATTRIBUTE_TYPE_FLOAT; PARAM_ATTRIBUTE_TYPE_COLOR; PARAM_ATTRIBUTE_TYPE_POINT; PARAM_ATTRIBUTE_TYPE_UV; PARAM_ATTRIBUTE_TYPE_INTEGER; PARAM_ATTRIBUTE_TYPE_AUTO; }; EDITPORT; INPORT;}
		COLOR PARAM_FALLBACK_COLOR{EDITPORT; INPORT; }
		REAL PARAM_O_FLOAT{EDITPORT; OUTPORT; CUSTOMGUI REALSLIDER; MINSLIDER 0; MAXSLIDER 1; STEP 0.01;  CREATEPORT;}
		LONG PARAM_OUTINTEGER{EDITPORT; OUTPORT; }
		REAL PARAM_O_POINTX{EDITPORT; OUTPORT; CUSTOMGUI REALSLIDER; MINSLIDER 0; MAXSLIDER 1; STEP 0.01;  CREATEPORT;}
		REAL PARAM_O_POINTY{EDITPORT; OUTPORT; CUSTOMGUI REALSLIDER; MINSLIDER 0; MAXSLIDER 1; STEP 0.01;  CREATEPORT;}
		REAL PARAM_O_POINTZ{EDITPORT; OUTPORT; CUSTOMGUI REALSLIDER; MINSLIDER 0; MAXSLIDER 1; STEP 0.01;  CREATEPORT;}
		REAL PARAM_O_U{EDITPORT; OUTPORT; CUSTOMGUI REALSLIDER; MINSLIDER 0; MAXSLIDER 1; STEP 0.01;  CREATEPORT;}
		REAL PARAM_O_V{EDITPORT; OUTPORT; CUSTOMGUI REALSLIDER; MINSLIDER 0; MAXSLIDER 1; STEP 0.01;  CREATEPORT;}
		COLOR PARAM_O_COLOR{EDITPORT; OUTPORT;  CREATEPORT;}
		REAL PARAM_O_COLORR{EDITPORT; OUTPORT; CUSTOMGUI REALSLIDER; MINSLIDER 0; MAXSLIDER 1; STEP 0.01;  CREATEPORT;}
		REAL PARAM_O_COLORG{EDITPORT; OUTPORT; CUSTOMGUI REALSLIDER; MINSLIDER 0; MAXSLIDER 1; STEP 0.01;  CREATEPORT;}
		REAL PARAM_O_COLORB{EDITPORT; OUTPORT; CUSTOMGUI REALSLIDER; MINSLIDER 0; MAXSLIDER 1; STEP 0.01;  CREATEPORT;}
		REAL PARAM_OUTALPHA{EDITPORT; OUTPORT; CUSTOMGUI REALSLIDER; MINSLIDER 0; MAXSLIDER 1; STEP 0.01;  CREATEPORT;}
	}
}
