CONTAINER dlRamp
{
	NAME dlRamp;

	INCLUDE GVbase;
	GROUP ID_GVPROPERTIES {
	DEFAULT 1;
		GROUP GROUP_RAMP {
		DEFAULT 1;
			LONG PARAM_MODE{ CYCLE{PARAM_MODE_HORIZONTAL__U_; PARAM_MODE_VERTICAL__V_; PARAM_MODE_DIAGONAL; PARAM_MODE_RADIAL; PARAM_MODE_CIRCULAR; PARAM_MODE_BOX; PARAM_MODE_RANDOM_COLOR; PARAM_MODE_COLORIZE_INPUT; }; EDITPORT; INPORT;}
			GRADIENT PARAM_COLORRAMP_COLORVALUE{COLOR; EDITPORT; INPORT; }
			LONG PARAM_COLOR_MIX_MODE{ CYCLE{PARAM_COLOR_MIX_MODE_RGB; PARAM_COLOR_MIX_MODE_HSV; }; EDITPORT; INPORT;}
			REAL PARAM_INPUT{EDITPORT; INPORT; CUSTOMGUI REALSLIDER; MINSLIDER 0; MAXSLIDER 1; STEP 0.01; }
		}
		GROUP GROUP_TRANSFORM {
		DEFAULT 1;
			REAL PARAM_REPEAT{EDITPORT; INPORT; CUSTOMGUI REALSLIDER; MINSLIDER 0; MAXSLIDER 2; STEP 0.02; }
			REAL PARAM_OFFSET{EDITPORT; INPORT; CUSTOMGUI REALSLIDER; MINSLIDER -1; MAXSLIDER 1; STEP 0.02; }
			BOOL PARAM_REVERSE{EDITPORT; INPORT;}
		}
		GROUP GROUP_DISTORTION {
		DEFAULT 1;
			REAL PARAM_DISTORTION_INTENSITY{EDITPORT; INPORT; CUSTOMGUI REALSLIDER; MINSLIDER 0; MAXSLIDER 1; STEP 0.01; }
			COLOR PARAM_DISTORTION{EDITPORT; INPORT; }
		}
		GROUP GROUP_NOISE {
		DEFAULT 1;
			REAL PARAM_NOISE_INTENSITY{EDITPORT; INPORT; CUSTOMGUI REALSLIDER; MINSLIDER 0; MAXSLIDER 1; STEP 0.01; }
			REAL PARAM_NOISE_HUE_INTENSITY{EDITPORT; INPORT; CUSTOMGUI REALSLIDER; MINSLIDER 0; MAXSLIDER 1; MIN 0; STEP 0.01; }
			REAL PARAM_NOISE_SATURATION_INTENSITY{EDITPORT; INPORT; CUSTOMGUI REALSLIDER; MINSLIDER 0; MAXSLIDER 1; MIN 0; STEP 0.01; }
			REAL PARAM_NOISE_VALUE_INTENSITY{EDITPORT; INPORT; CUSTOMGUI REALSLIDER; MINSLIDER 0; MAXSLIDER 1; MIN 0; STEP 0.01; }
			REAL PARAM_NOISE_SCALE{EDITPORT; INPORT; CUSTOMGUI REALSLIDER; MINSLIDER 0; MAXSLIDER 1; STEP 0.01; }
			REAL PARAM_NOISE_OFFSET{EDITPORT; INPORT; CUSTOMGUI REALSLIDER; MINSLIDER -1; MAXSLIDER 1; STEP 0.02; }
			REAL PARAM_NOISE_STEPPING{EDITPORT; INPORT; CUSTOMGUI REALSLIDER; MINSLIDER 0; MAXSLIDER 1; STEP 0.01; }
			REAL PARAM_NOISE_TIME{EDITPORT; INPORT; CUSTOMGUI REALSLIDER; MINSLIDER 0; MAXSLIDER 10; STEP 0.1; }
		}
		GROUP GROUP_NOISE_LAYERS {
		DEFAULT 1;
			LONG PARAM_LAYERS{EDITPORT; INPORT; }
			REAL PARAM_LAYER_PERSISTENCE{EDITPORT; INPORT; CUSTOMGUI REALSLIDER; MINSLIDER 0; MAXSLIDER 1; STEP 0.01; }
			REAL PARAM_LAYER_SCALE{EDITPORT; INPORT; CUSTOMGUI REALSLIDER; MINSLIDER 0; MAXSLIDER 1; STEP 0.01; }
		}
		GROUP GROUP_ADJUST {
		DEFAULT 1;
			BOOL PARAM_INVERT{EDITPORT; INPORT;}
			COLOR PARAM_COLORGAIN{EDITPORT; INPORT; }
			COLOR PARAM_COLOROFFSET{EDITPORT; INPORT; }
			REAL PARAM_ALPHAGAIN{EDITPORT; INPORT; CUSTOMGUI REALSLIDER; MINSLIDER 0; MAXSLIDER 1; STEP 0.01; }
			REAL PARAM_ALPHAOFFSET{EDITPORT; INPORT; CUSTOMGUI REALSLIDER; MINSLIDER 0; MAXSLIDER 1; STEP 0.01; }
		}
		COLOR PARAM_OUTCOLOR{EDITPORT; OUTPORT;  CREATEPORT;}
		REAL PARAM_OUTALPHA{EDITPORT; OUTPORT; CUSTOMGUI REALSLIDER; MINSLIDER 0; MAXSLIDER 1; STEP 0.01;  CREATEPORT;}
	}
}
