CONTAINER dlRandomMaterial
{
	NAME dlRandomMaterial;

	INCLUDE GVbase;
	GROUP ID_GVPROPERTIES {
	DEFAULT 1;
		GROUP GROUP_RANDOM {
		DEFAULT 1;
			LONG PARAM_SEED{EDITPORT; INPORT; }
		}
		CLOSURE PARAM_MATERIAL_1{ EDITPORT; INPORT; PORTONLY; SCALE_H;}
		REAL PARAM_IMPORTANCE_1{EDITPORT; INPORT; CUSTOMGUI REALSLIDER; MINSLIDER 0; MAXSLIDER 1; MIN 0; MAX 1; STEP 0.01; }
		CLOSURE PARAM_MATERIAL_2{ EDITPORT; INPORT; PORTONLY; SCALE_H;}
		REAL PARAM_IMPORTANCE_2{EDITPORT; INPORT; CUSTOMGUI REALSLIDER; MINSLIDER 0; MAXSLIDER 1; MIN 0; MAX 1; STEP 0.01; }
		CLOSURE PARAM_MATERIAL_3{ EDITPORT; INPORT; PORTONLY; SCALE_H;}
		REAL PARAM_IMPORTANCE_3{EDITPORT; INPORT; CUSTOMGUI REALSLIDER; MINSLIDER 0; MAXSLIDER 1; MIN 0; MAX 1; STEP 0.01; }
		CLOSURE PARAM_MATERIAL_4{ EDITPORT; INPORT; PORTONLY; SCALE_H;}
		REAL PARAM_IMPORTANCE_4{EDITPORT; INPORT; CUSTOMGUI REALSLIDER; MINSLIDER 0; MAXSLIDER 1; MIN 0; MAX 1; STEP 0.01; }
		CLOSURE PARAM_MATERIAL_5{ EDITPORT; INPORT; PORTONLY; SCALE_H;}
		REAL PARAM_IMPORTANCE_5{EDITPORT; INPORT; CUSTOMGUI REALSLIDER; MINSLIDER 0; MAXSLIDER 1; MIN 0; MAX 1; STEP 0.01; }
		CLOSURE PARAM_AOVGROUP{ EDITPORT; INPORT; PORTONLY; SCALE_H;}
		CLOSURE PARAM_OUTCOLOR{ EDITPORT; OUTPORT; PORTONLY; CREATEPORT; SCALE_H;}
	}
}
