CONTAINER dlRemap
{
	NAME dlRemap;

	INCLUDE GVbase;
	GROUP ID_GVPROPERTIES {
	DEFAULT 1;
		GROUP GROUP_REMAP {
		DEFAULT 1;
			REAL PARAM_INPUTVALUE{EDITPORT; INPORT; CUSTOMGUI REALSLIDER; MINSLIDER 0; MAXSLIDER 1; STEP 0.01; }
			SPLINE PARAM_VALUE_FLOATVALUE{X_MIN 0; X_MAX 1; EDITPORT; INPORT; }
			GRADIENT PARAM_COLOR_COLOR{COLOR; EDITPORT; INPORT; }
		}
		GROUP GROUP_RANGE {
		DEFAULT 1;
			REAL PARAM_INPUTMIN{EDITPORT; INPORT; CUSTOMGUI REALSLIDER; MINSLIDER 0; MAXSLIDER 1; STEP 0.01; }
			REAL PARAM_INPUTMAX{EDITPORT; INPORT; CUSTOMGUI REALSLIDER; MINSLIDER 0; MAXSLIDER 1; STEP 0.01; }
			REAL PARAM_OUTPUTMIN{EDITPORT; INPORT; CUSTOMGUI REALSLIDER; MINSLIDER 0; MAXSLIDER 1; STEP 0.01; }
			REAL PARAM_OUTPUTMAX{EDITPORT; INPORT; CUSTOMGUI REALSLIDER; MINSLIDER 0; MAXSLIDER 1; STEP 0.01; }
		}
		REAL PARAM_O_OUTVALUE{EDITPORT; OUTPORT; CUSTOMGUI REALSLIDER; MINSLIDER 0; MAXSLIDER 1; STEP 0.01;  CREATEPORT;}
		COLOR PARAM_O_OUTCOLOR{EDITPORT; OUTPORT;  CREATEPORT;}
		REAL PARAM_O_OUTCOLORR{EDITPORT; OUTPORT; CUSTOMGUI REALSLIDER; MINSLIDER 0; MAXSLIDER 1; STEP 0.01;  CREATEPORT;}
		REAL PARAM_O_OUTCOLORG{EDITPORT; OUTPORT; CUSTOMGUI REALSLIDER; MINSLIDER 0; MAXSLIDER 1; STEP 0.01;  CREATEPORT;}
		REAL PARAM_O_OUTCOLORB{EDITPORT; OUTPORT; CUSTOMGUI REALSLIDER; MINSLIDER 0; MAXSLIDER 1; STEP 0.01;  CREATEPORT;}
	}
}
