CONTAINER dlShadowMatte
{
	NAME dlShadowMatte;

	INCLUDE GVbase;
	GROUP ID_GVPROPERTIES {
	DEFAULT 1;
		GROUP GROUP_SHADOWS {
		DEFAULT 1;
			REAL PARAM_SHADOW_OPACITY{EDITPORT; INPORT; CUSTOMGUI REALSLIDER; MINSLIDER 0; MAXSLIDER 1; MIN 0; MAX 1; STEP 0.01; }
			COLOR PARAM_SHADOW_COLOR{EDITPORT; INPORT; }
		}
		GROUP GROUP_DIFFUSE {
		DEFAULT 1;
			COLOR PARAM_DIFFUSE_COLOR{EDITPORT; INPORT; }
			REAL PARAM_DIFFUSE_INTENSITY{EDITPORT; INPORT; CUSTOMGUI REALSLIDER; MINSLIDER 0; MAXSLIDER 1; MIN 0; MAX 1; STEP 0.01; }
			REAL PARAM_DIFFUSE_ROUGHNESS{EDITPORT; INPORT; CUSTOMGUI REALSLIDER; MINSLIDER 0; MAXSLIDER 1; MIN 0; MAX 1; STEP 0.01; }
		}
		GROUP GROUP_BACKGROUND {
		DEFAULT 1;
			BOOL PARAM_SHOW_BACKGROUND{EDITPORT; INPORT;}
		}
		GROUP GROUP_AOVS {
		DEFAULT 1;
			CLOSURE PARAM_AOVGROUP{ EDITPORT; INPORT; PORTONLY; SCALE_H;}
		}
		CLOSURE PARAM_OUTCOLOR{ EDITPORT; OUTPORT; PORTONLY; CREATEPORT; SCALE_H;}
	}
}
