CONTAINER dlSolidRamp
{
	NAME dlSolidRamp;

	INCLUDE GVbase;
	GROUP ID_GVPROPERTIES {
	DEFAULT 1;
		GROUP GROUP_RAMP {
		DEFAULT 1;
			LONG PARAM_SHAPE{ CYCLE{PARAM_SHAPE_SPHERE; PARAM_SHAPE_CUBE; PARAM_SHAPE_CYLINDER; PARAM_SHAPE_CONE; PARAM_SHAPE_LINEAR; }; EDITPORT; INPORT;}
			GRADIENT PARAM_COLORRAMP_COLORVALUE{COLOR; EDITPORT; INPORT; }
			SPLINE PARAM_OPACITYRAMP_FLOATVALUE{X_MIN 0; X_MAX 1; EDITPORT; INPORT; }
			LONG PARAM_REVERSE_RAMPS{ CYCLE{PARAM_REVERSE_RAMPS_NONE; PARAM_REVERSE_RAMPS_BOTH; PARAM_REVERSE_RAMPS_COLOR_RAMP; PARAM_REVERSE_RAMPS_OPACITY_RAMP; }; EDITPORT; INPORT;}
			COLOR PARAM_COLOR_BG{EDITPORT; INPORT; }
			LONG PARAM_OUTSIDE{ CYCLE{PARAM_OUTSIDE_ONLY_BACKGROUND; PARAM_OUTSIDE_REPEAT_RAMP; }; EDITPORT; INPORT;}
			LONG PARAM_SPACE{ CYCLE{PARAM_SPACE_WORLD; PARAM_SPACE_OBJECT; }; EDITPORT; INPORT;}
		}
		GROUP GROUP_DISTORTION {
		DEFAULT 1;
			REAL PARAM_DISTORTION_INTENSITY{EDITPORT; INPORT; CUSTOMGUI REALSLIDER; MINSLIDER 0; MAXSLIDER 1; STEP 0.01; }
			COLOR PARAM_DISTORTION{EDITPORT; INPORT; }
		}
		GROUP GROUP_NOISE {
		DEFAULT 1;
			REAL PARAM_NOISE_INTENSITY{EDITPORT; INPORT; CUSTOMGUI REALSLIDER; MINSLIDER 0; MAXSLIDER 1; STEP 0.01; }
			REAL PARAM_NOISE_SCALE{EDITPORT; INPORT; CUSTOMGUI REALSLIDER; MINSLIDER 0; MAXSLIDER 1; STEP 0.01; }
			REAL PARAM_NOISE_STEPPING{EDITPORT; INPORT; CUSTOMGUI REALSLIDER; MINSLIDER 0; MAXSLIDER 1; STEP 0.01; }
			REAL PARAM_NOISE_TIME{EDITPORT; INPORT; CUSTOMGUI REALSLIDER; MINSLIDER 0; MAXSLIDER 10; STEP 0.1; }
			REAL PARAM_NOISE_HUE_VARIATION{EDITPORT; INPORT; CUSTOMGUI REALSLIDER; MINSLIDER 0; MAXSLIDER 1; MIN 0; STEP 0.01; }
			REAL PARAM_NOISE_SATURATION_VARIATION{EDITPORT; INPORT; CUSTOMGUI REALSLIDER; MINSLIDER 0; MAXSLIDER 1; MIN 0; STEP 0.01; }
			REAL PARAM_NOISE_VALUE_VARIATION{EDITPORT; INPORT; CUSTOMGUI REALSLIDER; MINSLIDER 0; MAXSLIDER 1; MIN 0; STEP 0.01; }
			REAL PARAM_NOISE_OPACITY_VARIATION{EDITPORT; INPORT; CUSTOMGUI REALSLIDER; MINSLIDER 0; MAXSLIDER 1; MIN 0; STEP 0.01; }
		}
		GROUP GROUP_NOISE_LAYERS {
		DEFAULT 1;
			LONG PARAM_LAYERS{EDITPORT; INPORT; }
			REAL PARAM_LAYER_PERSISTENCE{EDITPORT; INPORT; CUSTOMGUI REALSLIDER; MINSLIDER 0; MAXSLIDER 1; STEP 0.01; }
			REAL PARAM_LAYER_SCALE{EDITPORT; INPORT; CUSTOMGUI REALSLIDER; MINSLIDER 0; MAXSLIDER 1; STEP 0.01; }
		}
		GROUP GROUP_ADJUST {
		DEFAULT 1;
			BOOL PARAM_INVERT{EDITPORT; INPORT;}
		}
		MATRIX PARAM_PLACEMENTMATRIX{EDITPORT; PORTONLY; INPORT; }
		COLOR PARAM_OUTCOLOR{EDITPORT; OUTPORT;  CREATEPORT;}
		REAL PARAM_OUTALPHA{EDITPORT; OUTPORT; CUSTOMGUI REALSLIDER; MINSLIDER 0; MAXSLIDER 1; STEP 0.01;  CREATEPORT;}
	}
}
