CONTAINER dlTerminal
{
	NAME dlTerminal;
	
	INCLUDE GVbase;
	SCALE_H;
	
	GROUP ID_GVPORTS
	{
		CLOSURE SURFACE{EDITPORT; INPORT; PORTONLY; CREATEPORT; SCALE_H;}
		CLOSURE VOLUME{EDITPORT; INPORT; PORTONLY; CREATEPORT; SCALE_H;}
		VECTOR DISPLACEMENT{EDITPORT; INPORT; PORTONLY; CREATEPORT; SCALE_H;}
	}
	

}
