CONTAINER dlThin
{
	NAME dlThin;

	INCLUDE GVbase;
	GROUP ID_GVPROPERTIES {
	DEFAULT 1;
		GROUP GROUP_FRONT {
		DEFAULT 1;
			COLOR PARAM_I_COLOR{EDITPORT; INPORT; }
			REAL PARAM_ROUGHNESS{EDITPORT; INPORT; CUSTOMGUI REALSLIDER; MINSLIDER 0; MAXSLIDER 1; MIN 0; MAX 1; STEP 0.01; }
			REAL PARAM_SPECULAR_LEVEL{EDITPORT; INPORT; CUSTOMGUI REALSLIDER; MINSLIDER 0; MAXSLIDER 1; MIN 0; STEP 0.01; }
		}
		GROUP GROUP_BACK {
		DEFAULT 1;
			COLOR PARAM_COLOR_BACK{EDITPORT; INPORT; }
			REAL PARAM_ROUGHNESS_BACK{EDITPORT; INPORT; CUSTOMGUI REALSLIDER; MINSLIDER 0; MAXSLIDER 1; MIN 0; MAX 1; STEP 0.01; }
			REAL PARAM_SPECULAR_LEVEL_BACK{EDITPORT; INPORT; CUSTOMGUI REALSLIDER; MINSLIDER 0; MAXSLIDER 1; MIN 0; STEP 0.01; }
		}
		GROUP GROUP_TRANSLUCENCY {
		DEFAULT 1;
			REAL PARAM_TRANSLUCENCY{EDITPORT; INPORT; CUSTOMGUI REALSLIDER; MINSLIDER 0; MAXSLIDER 1; MIN 0; MAX 1; STEP 0.01; }
			REAL PARAM_OPACITY{EDITPORT; INPORT; CUSTOMGUI REALSLIDER; MINSLIDER 0; MAXSLIDER 1; MIN 0; MAX 1; STEP 0.01; }
		}
		GROUP GROUP_BUMP___NORMAL___DISPLACEMENT_MAP {
		DEFAULT 1;
			LONG PARAM_DISP_NORMAL_BUMP_TYPE{ CYCLE{PARAM_DISP_NORMAL_BUMP_TYPE_BUMP_MAP; PARAM_DISP_NORMAL_BUMP_TYPE_NORMAL_MAP__DIRECTX_; PARAM_DISP_NORMAL_BUMP_TYPE_NORMAL_MAP__OPENGL_; PARAM_DISP_NORMAL_BUMP_TYPE_DISPLACEMENT__0_0_CENTERED_; PARAM_DISP_NORMAL_BUMP_TYPE_DISPLACEMENT__0_5_CENTERED_; }; EDITPORT; INPORT;}
			COLOR PARAM_DISP_NORMAL_BUMP_VALUE{EDITPORT; INPORT; }
			REAL PARAM_DISP_NORMAL_BUMP_INTENSITY{EDITPORT; INPORT; CUSTOMGUI REALSLIDER; MINSLIDER 0; MAXSLIDER 1; STEP 0.01; }
		}
		GROUP GROUP_GEOMETRY {
		DEFAULT 1;
			REAL PARAM_OCCLUSION_DISTANCE{EDITPORT; INPORT; CUSTOMGUI REALSLIDER; MINSLIDER 0; MAXSLIDER 1; STEP 0.01; }
		}
		CLOSURE PARAM_AOVGROUP{ EDITPORT; INPORT; PORTONLY; SCALE_H;}
		CLOSURE PARAM_OUTCOLOR{ EDITPORT; OUTPORT; PORTONLY; CREATEPORT; SCALE_H;}
	}
}
