CONTAINER dlTiles
{
	NAME dlTiles;

	INCLUDE GVbase;
	GROUP ID_GVPROPERTIES {
	DEFAULT 1;
		GROUP GROUP_MAIN {
		DEFAULT 1;
			LONG PARAM_MODE{ CYCLE{PARAM_MODE_2D__UV_; PARAM_MODE_2D_LAYERED__UV_; PARAM_MODE_3D__PLANAR_; PARAM_MODE_3D__TRIPLANAR_; }; EDITPORT; INPORT;}
			LONG PARAM_SHAPE{ CYCLE{PARAM_SHAPE_SQUARE; PARAM_SHAPE_TRIANGLE; PARAM_SHAPE_HEXAGON; PARAM_SHAPE_VORONOI; }; EDITPORT; INPORT;}
			REAL PARAM_TILE_U{EDITPORT; INPORT; CUSTOMGUI REALSLIDER; MINSLIDER 1; MAXSLIDER 20; MIN 0; STEP 0.19; }
			REAL PARAM_TILE_V{EDITPORT; INPORT; CUSTOMGUI REALSLIDER; MINSLIDER 1; MAXSLIDER 20; MIN 0; STEP 0.19; }
			REAL PARAM_SCALE{EDITPORT; INPORT; CUSTOMGUI REALSLIDER; MINSLIDER 0; MAXSLIDER 2; MIN 0; STEP 0.01; }
			REAL PARAM_CORNER_ROUNDING{EDITPORT; INPORT; CUSTOMGUI REALSLIDER; MINSLIDER 0; MAXSLIDER 1; MIN 0; STEP 0.01; }
			REAL PARAM_INNER_ROUNDING{EDITPORT; INPORT; CUSTOMGUI REALSLIDER; MINSLIDER 0; MAXSLIDER 1; MIN 0; STEP 0.01; }
			LONG PARAM_BEVEL_SHAPE{ CYCLE{PARAM_BEVEL_SHAPE_NONE; PARAM_BEVEL_SHAPE_CUSTOM; PARAM_BEVEL_SHAPE_LINEAR; PARAM_BEVEL_SHAPE_SMOOTH; PARAM_BEVEL_SHAPE_ROUND; }; EDITPORT; INPORT;}
			REAL PARAM_BEVEL_WIDTH{EDITPORT; INPORT; CUSTOMGUI REALSLIDER; MINSLIDER 0; MAXSLIDER 1; MIN 0; MAX 1; STEP 0.01; }
			LONG PARAM_BEVEL_REPEAT{EDITPORT; INPORT; }
			SPLINE PARAM_BEVEL_CUSTOM_VAL{X_MIN 0; X_MAX 1; EDITPORT; INPORT; }
			REAL PARAM_SLOPE{EDITPORT; INPORT; CUSTOMGUI REALSLIDER; MINSLIDER 0; MAXSLIDER 1; MIN 0; MAX 1; STEP 0.01; }
			REAL PARAM_SLOPE_ROTATION{EDITPORT; INPORT; CUSTOMGUI REALSLIDER; MINSLIDER -360; MAXSLIDER 360; STEP 7.2; }
			REAL PARAM_PROBABILITY{EDITPORT; INPORT; CUSTOMGUI REALSLIDER; MINSLIDER 0; MAXSLIDER 1; MIN 0; MAX 1; STEP 0.01; }
		}
		GROUP GROUP_SQUARE_EXTRA {
		DEFAULT 1;
			REAL PARAM_TILE_U_ALT{EDITPORT; INPORT; CUSTOMGUI REALSLIDER; MINSLIDER 0; MAXSLIDER 1; MIN 0; STEP 0.01; }
			REAL PARAM_TILE_V_ALT{EDITPORT; INPORT; CUSTOMGUI REALSLIDER; MINSLIDER 0; MAXSLIDER 1; MIN 0; STEP 0.01; }
			REAL PARAM_STAGGER{EDITPORT; INPORT; CUSTOMGUI REALSLIDER; MINSLIDER 0; MAXSLIDER 1; MIN 0; MAX 1; STEP 0.01; }
			LONG PARAM_STAGGER_DIR{ CYCLE{PARAM_STAGGER_DIR_U_DIR; PARAM_STAGGER_DIR_V_DIR; }; EDITPORT; INPORT;}
			REAL PARAM_SUBDIVISION{EDITPORT; INPORT; CUSTOMGUI REALSLIDER; MINSLIDER 0; MAXSLIDER 1; MIN 0; MAX 1; STEP 0.01; }
			REAL PARAM_RANDOM_STAGGER{EDITPORT; INPORT; CUSTOMGUI REALSLIDER; MINSLIDER 0; MAXSLIDER 1; STEP 0.01; }
			REAL PARAM_RANDOM_U_ALT{EDITPORT; INPORT; CUSTOMGUI REALSLIDER; MINSLIDER 0; MAXSLIDER 1; STEP 0.01; }
			REAL PARAM_RANDOM_V_ALT{EDITPORT; INPORT; CUSTOMGUI REALSLIDER; MINSLIDER 0; MAXSLIDER 1; STEP 0.01; }
		}
		GROUP GROUP_SHADING {
		DEFAULT 1;
			COLOR PARAM_TILE_COLOR{EDITPORT; INPORT; }
			REAL PARAM_TILE_HEIGHT{EDITPORT; INPORT; CUSTOMGUI REALSLIDER; MINSLIDER 0; MAXSLIDER 1; MIN 0; STEP 0.01; }
			REAL PARAM_TILE_ROUGHNESS{EDITPORT; INPORT; CUSTOMGUI REALSLIDER; MINSLIDER 0; MAXSLIDER 1; MIN 0; STEP 0.01; }
			REAL PARAM_TILE_METALLIC{EDITPORT; INPORT; CUSTOMGUI REALSLIDER; MINSLIDER 0; MAXSLIDER 1; MIN 0; STEP 0.01; }
			GRADIENT PARAM_COLOR_ACROSS_TILE_COLORVALUE{COLOR; EDITPORT; INPORT; }
			LONG PARAM_COLOR_INSIDE_MODE{ CYCLE{PARAM_COLOR_INSIDE_MODE_SHAPE__ABSOLUTE_; PARAM_COLOR_INSIDE_MODE_SHAPE__RELATIVE_; PARAM_COLOR_INSIDE_MODE_SLOPE; PARAM_COLOR_INSIDE_MODE_SIZE; PARAM_COLOR_INSIDE_MODE_ALTERNATING; }; EDITPORT; INPORT;}
			GRADIENT PARAM_COLOR_INSIDE_TILE_COLORVALUE{COLOR; EDITPORT; INPORT; }
		}
		GROUP GROUP_GAP {
		DEFAULT 1;
			LONG PARAM_GAP_MODE{ CYCLE{PARAM_GAP_MODE_HEIGHT_BLEND; PARAM_GAP_MODE_SUNKEN; }; EDITPORT; INPORT;}
			REAL PARAM_GAP_BLEND{EDITPORT; INPORT; CUSTOMGUI REALSLIDER; MINSLIDER 0; MAXSLIDER 1; MIN 0; STEP 0.01; }
			LONG PARAM_GAP_SIZE_MODE{ CYCLE{PARAM_GAP_SIZE_MODE_ABSOLUTE; PARAM_GAP_SIZE_MODE_RELATIVE; }; EDITPORT; INPORT;}
			REAL PARAM_GAP_SIZE_U{EDITPORT; INPORT; CUSTOMGUI REALSLIDER; MINSLIDER 0; MAXSLIDER 1; MIN 0; STEP 0.01; }
			REAL PARAM_GAP_SIZE_V{EDITPORT; INPORT; CUSTOMGUI REALSLIDER; MINSLIDER 0; MAXSLIDER 1; MIN 0; STEP 0.01; }
			COLOR PARAM_GAP_COLOR{EDITPORT; INPORT; }
			REAL PARAM_GAP_ROUGHNESS{EDITPORT; INPORT; CUSTOMGUI REALSLIDER; MINSLIDER 0; MAXSLIDER 1; MIN 0; MAX 1; STEP 0.01; }
			REAL PARAM_GAP_METALLIC{EDITPORT; INPORT; CUSTOMGUI REALSLIDER; MINSLIDER 0; MAXSLIDER 1; MIN 0; MAX 1; STEP 0.01; }
			REAL PARAM_GAP_HEIGHT{EDITPORT; INPORT; CUSTOMGUI REALSLIDER; MINSLIDER 0; MAXSLIDER 1; MIN 0; MAX 1; STEP 0.01; }
		}
		GROUP GROUP_DISTORTION {
		DEFAULT 1;
			COLOR PARAM_DISTORTION{EDITPORT; INPORT; }
			REAL PARAM_DISTORTION_INTENSITY{EDITPORT; INPORT; CUSTOMGUI REALSLIDER; MINSLIDER 0; MAXSLIDER 1; STEP 0.01; }
			LONG PARAM_BUILTIN_DISTORTION{ CYCLE{PARAM_BUILTIN_DISTORTION_OFF; PARAM_BUILTIN_DISTORTION_SOFT_PERLIN; PARAM_BUILTIN_DISTORTION_HARD_PERLIN; PARAM_BUILTIN_DISTORTION_PERLIN_MIX_1; PARAM_BUILTIN_DISTORTION_PERLIN_MIX_2; PARAM_BUILTIN_DISTORTION_PERLIN_INFLECTION_1; PARAM_BUILTIN_DISTORTION_PERLIN_INFLECTION_2; PARAM_BUILTIN_DISTORTION_BOX; PARAM_BUILTIN_DISTORTION_VORONOI_1; PARAM_BUILTIN_DISTORTION_VORONOI_2; PARAM_BUILTIN_DISTORTION_VORONOI_3; }; EDITPORT; INPORT;}
			REAL PARAM_BUILTIN_DISTORTION_SCALE{EDITPORT; INPORT; CUSTOMGUI REALSLIDER; MINSLIDER 0; MAXSLIDER 2; STEP 0.02; }
			REAL PARAM_BUILTIN_DISTORTION_INTENSITY{EDITPORT; INPORT; CUSTOMGUI REALSLIDER; MINSLIDER 0; MAXSLIDER 1; STEP 0.01; }
		}
		GROUP GROUP_TILE_TEXTURES {
		DEFAULT 1;
			FILENAME PARAM_TEXTURE_TILE_COLOR{EDITPORT; INPORT; }
			LONG PARAM_TEXTURE_TILE_COLOR_META_COLORSPACE{ CYCLE{PARAM_TEXTURE_TILE_COLOR_META_COLORSPACE_AUTO; PARAM_TEXTURE_TILE_COLOR_META_COLORSPACE_SRGB; PARAM_TEXTURE_TILE_COLOR_META_COLORSPACE_REC__709; PARAM_TEXTURE_TILE_COLOR_META_COLORSPACE_LINEAR; }; EDITPORT; INPORT;}
			FILENAME PARAM_TEXTURE_TILE_HEIGHT{EDITPORT; INPORT; }
			LONG PARAM_TEXTURE_TILE_HEIGHT_META_COLORSPACE{ CYCLE{PARAM_TEXTURE_TILE_HEIGHT_META_COLORSPACE_AUTO; PARAM_TEXTURE_TILE_HEIGHT_META_COLORSPACE_SRGB; PARAM_TEXTURE_TILE_HEIGHT_META_COLORSPACE_REC__709; PARAM_TEXTURE_TILE_HEIGHT_META_COLORSPACE_LINEAR; }; EDITPORT; INPORT;}
			FILENAME PARAM_TEXTURE_TILE_ROUGHNESS{EDITPORT; INPORT; }
			LONG PARAM_TEXTURE_TILE_ROUGHNESS_META_COLORSPACE{ CYCLE{PARAM_TEXTURE_TILE_ROUGHNESS_META_COLORSPACE_AUTO; PARAM_TEXTURE_TILE_ROUGHNESS_META_COLORSPACE_SRGB; PARAM_TEXTURE_TILE_ROUGHNESS_META_COLORSPACE_REC__709; PARAM_TEXTURE_TILE_ROUGHNESS_META_COLORSPACE_LINEAR; }; EDITPORT; INPORT;}
			FILENAME PARAM_TEXTURE_TILE_METALLIC{EDITPORT; INPORT; }
			LONG PARAM_TEXTURE_TILE_METALLIC_META_COLORSPACE{ CYCLE{PARAM_TEXTURE_TILE_METALLIC_META_COLORSPACE_AUTO; PARAM_TEXTURE_TILE_METALLIC_META_COLORSPACE_SRGB; PARAM_TEXTURE_TILE_METALLIC_META_COLORSPACE_REC__709; PARAM_TEXTURE_TILE_METALLIC_META_COLORSPACE_LINEAR; }; EDITPORT; INPORT;}
			REAL PARAM_TEXTURE_TILE_COLOR_INTENSITY{EDITPORT; INPORT; CUSTOMGUI REALSLIDER; MINSLIDER 0; MAXSLIDER 1; MIN 0; MAX 1; STEP 0.01; }
			REAL PARAM_TEXTURE_TILE_HEIGHT_INTENSITY{EDITPORT; INPORT; CUSTOMGUI REALSLIDER; MINSLIDER 0; MAXSLIDER 1; MIN 0; MAX 1; STEP 0.01; }
			REAL PARAM_TEXTURE_TILE_ROUGHNESS_INTENSITY{EDITPORT; INPORT; CUSTOMGUI REALSLIDER; MINSLIDER 0; MAXSLIDER 1; MIN 0; MAX 1; STEP 0.01; }
			REAL PARAM_TEXTURE_TILE_METALLIC_INTENSITY{EDITPORT; INPORT; CUSTOMGUI REALSLIDER; MINSLIDER 0; MAXSLIDER 1; MIN 0; MAX 1; STEP 0.01; }
			REAL PARAM_TEXTURE_TILE_SCALE{EDITPORT; INPORT; CUSTOMGUI REALSLIDER; MINSLIDER 0; MAXSLIDER 2; MIN 0; STEP 0.01; }
			REAL PARAM_TEXTURE_TILE_ROTATION{EDITPORT; INPORT; CUSTOMGUI REALSLIDER; MINSLIDER -360; MAXSLIDER 360; STEP 7.2; }
			REAL PARAM_BUILTIN_SCALE{EDITPORT; INPORT; CUSTOMGUI REALSLIDER; MINSLIDER 0; MAXSLIDER 2; MIN 0; STEP 0.01; }
			REAL PARAM_BUILTIN_ROTATION{EDITPORT; INPORT; CUSTOMGUI REALSLIDER; MINSLIDER -360; MAXSLIDER 360; STEP 7.2; }
		}
		GROUP GROUP_UV_TEXTURES {
		DEFAULT 1;
			FILENAME PARAM_TEXTURE_UV_COLOR{EDITPORT; INPORT; }
			LONG PARAM_TEXTURE_UV_COLOR_META_COLORSPACE{ CYCLE{PARAM_TEXTURE_UV_COLOR_META_COLORSPACE_AUTO; PARAM_TEXTURE_UV_COLOR_META_COLORSPACE_SRGB; PARAM_TEXTURE_UV_COLOR_META_COLORSPACE_REC__709; PARAM_TEXTURE_UV_COLOR_META_COLORSPACE_LINEAR; }; EDITPORT; INPORT;}
			FILENAME PARAM_TEXTURE_UV_ROUGHNESS{EDITPORT; INPORT; }
			LONG PARAM_TEXTURE_UV_ROUGHNESS_META_COLORSPACE{ CYCLE{PARAM_TEXTURE_UV_ROUGHNESS_META_COLORSPACE_AUTO; PARAM_TEXTURE_UV_ROUGHNESS_META_COLORSPACE_SRGB; PARAM_TEXTURE_UV_ROUGHNESS_META_COLORSPACE_REC__709; PARAM_TEXTURE_UV_ROUGHNESS_META_COLORSPACE_LINEAR; }; EDITPORT; INPORT;}
			FILENAME PARAM_TEXTURE_UV_METALLIC{EDITPORT; INPORT; }
			LONG PARAM_TEXTURE_UV_METALLIC_META_COLORSPACE{ CYCLE{PARAM_TEXTURE_UV_METALLIC_META_COLORSPACE_AUTO; PARAM_TEXTURE_UV_METALLIC_META_COLORSPACE_SRGB; PARAM_TEXTURE_UV_METALLIC_META_COLORSPACE_REC__709; PARAM_TEXTURE_UV_METALLIC_META_COLORSPACE_LINEAR; }; EDITPORT; INPORT;}
			FILENAME PARAM_TEXTURE_UV_HEIGHT{EDITPORT; INPORT; }
			LONG PARAM_TEXTURE_UV_HEIGHT_META_COLORSPACE{ CYCLE{PARAM_TEXTURE_UV_HEIGHT_META_COLORSPACE_AUTO; PARAM_TEXTURE_UV_HEIGHT_META_COLORSPACE_SRGB; PARAM_TEXTURE_UV_HEIGHT_META_COLORSPACE_REC__709; PARAM_TEXTURE_UV_HEIGHT_META_COLORSPACE_LINEAR; }; EDITPORT; INPORT;}
			FILENAME PARAM_TEXTURE_UV_PROBABILITY{EDITPORT; INPORT; }
			LONG PARAM_TEXTURE_UV_PROBABILITY_META_COLORSPACE{ CYCLE{PARAM_TEXTURE_UV_PROBABILITY_META_COLORSPACE_AUTO; PARAM_TEXTURE_UV_PROBABILITY_META_COLORSPACE_SRGB; PARAM_TEXTURE_UV_PROBABILITY_META_COLORSPACE_REC__709; PARAM_TEXTURE_UV_PROBABILITY_META_COLORSPACE_LINEAR; }; EDITPORT; INPORT;}
			REAL PARAM_TEXTURE_UV_HEIGHT_INTENSITY{EDITPORT; INPORT; CUSTOMGUI REALSLIDER; MINSLIDER 0; MAXSLIDER 1; MIN 0; MAX 1; STEP 0.01; }
			REAL PARAM_TEXTURE_UV_BLUR{EDITPORT; INPORT; CUSTOMGUI REALSLIDER; MINSLIDER 0; MAXSLIDER 1; MIN 0; MAX 10; STEP 0.1; }
		}
		GROUP GROUP_BUILT_IN {
		DEFAULT 1;
			LONG PARAM_BUILTIN_PATTERN{ CYCLE{PARAM_BUILTIN_PATTERN_OFF; PARAM_BUILTIN_PATTERN_SOFT_PERLIN; PARAM_BUILTIN_PATTERN_HARD_PERLIN; PARAM_BUILTIN_PATTERN_PERLIN_MIX_1; PARAM_BUILTIN_PATTERN_PERLIN_MIX_2; PARAM_BUILTIN_PATTERN_PERLIN_INFLECTION_1; PARAM_BUILTIN_PATTERN_PERLIN_INFLECTION_2; PARAM_BUILTIN_PATTERN_BOX; PARAM_BUILTIN_PATTERN_VORONOI_1; PARAM_BUILTIN_PATTERN_VORONOI_2; PARAM_BUILTIN_PATTERN_VORONOI_3; }; EDITPORT; INPORT;}
			REAL PARAM_BUILTIN_COLOR_INTENSITY{EDITPORT; INPORT; CUSTOMGUI REALSLIDER; MINSLIDER 0; MAXSLIDER 1; MIN 0; STEP 0.01; }
			REAL PARAM_BUILTIN_HEIGHT_INTENSITY{EDITPORT; INPORT; CUSTOMGUI REALSLIDER; MINSLIDER 0; MAXSLIDER 1; MIN 0; STEP 0.01; }
			REAL PARAM_BUILTIN_ROUGHNESS_INTENSITY{EDITPORT; INPORT; CUSTOMGUI REALSLIDER; MINSLIDER 0; MAXSLIDER 1; MIN 0; STEP 0.01; }
			REAL PARAM_BUILTIN_METALLIC_INTENSITY{EDITPORT; INPORT; CUSTOMGUI REALSLIDER; MINSLIDER 0; MAXSLIDER 1; MIN 0; STEP 0.01; }
		}
		GROUP GROUP_RANDOM {
		DEFAULT 1;
			REAL PARAM_RANDOM_BRIGHTNESS{EDITPORT; INPORT; CUSTOMGUI REALSLIDER; MINSLIDER 0; MAXSLIDER 1; STEP 0.01; }
			REAL PARAM_RANDOM_HUE{EDITPORT; INPORT; CUSTOMGUI REALSLIDER; MINSLIDER 0; MAXSLIDER 1; STEP 0.01; }
			REAL PARAM_RANDOM_HEIGHT{EDITPORT; INPORT; CUSTOMGUI REALSLIDER; MINSLIDER 0; MAXSLIDER 1; STEP 0.01; }
			REAL PARAM_RANDOM_ROUGHNESS{EDITPORT; INPORT; CUSTOMGUI REALSLIDER; MINSLIDER 0; MAXSLIDER 1; STEP 0.01; }
			REAL PARAM_RANDOM_METALLIC{EDITPORT; INPORT; CUSTOMGUI REALSLIDER; MINSLIDER 0; MAXSLIDER 1; STEP 0.01; }
			REAL PARAM_RANDOM_OFFSET_X{EDITPORT; INPORT; CUSTOMGUI REALSLIDER; MINSLIDER 0; MAXSLIDER 1; STEP 0.01; }
			REAL PARAM_RANDOM_OFFSET_Y{EDITPORT; INPORT; CUSTOMGUI REALSLIDER; MINSLIDER 0; MAXSLIDER 1; STEP 0.01; }
			REAL PARAM_RANDOM_SCALE{EDITPORT; INPORT; CUSTOMGUI REALSLIDER; MINSLIDER 0; MAXSLIDER 1; STEP 0.01; }
			REAL PARAM_RANDOM_ROTATION{EDITPORT; INPORT; CUSTOMGUI REALSLIDER; MINSLIDER 0; MAXSLIDER 1; STEP 0.01; }
			LONG PARAM_RANDOM_ROTATION_STEPS{EDITPORT; INPORT; }
			REAL PARAM_RANDOM_SLOPE{EDITPORT; INPORT; CUSTOMGUI REALSLIDER; MINSLIDER 0; MAXSLIDER 1; STEP 0.01; }
			REAL PARAM_RANDOM_ROUNDING{EDITPORT; INPORT; CUSTOMGUI REALSLIDER; MINSLIDER 0; MAXSLIDER 1; STEP 0.01; }
			REAL PARAM_RANDOM_TILE_TEXTURES{EDITPORT; INPORT; CUSTOMGUI REALSLIDER; MINSLIDER 0; MAXSLIDER 1; STEP 0.01; }
			REAL PARAM_RANDOM_BUILTIN{EDITPORT; INPORT; CUSTOMGUI REALSLIDER; MINSLIDER 0; MAXSLIDER 1; STEP 0.01; }
		}
		GROUP GROUP_WEATHERING {
		DEFAULT 1;
			REAL PARAM_SMOOTH_NOISE{EDITPORT; INPORT; CUSTOMGUI REALSLIDER; MINSLIDER 0; MAXSLIDER 1; MIN 0; STEP 0.01; }
			REAL PARAM_SMOOTH_NOISE_SCALE{EDITPORT; INPORT; CUSTOMGUI REALSLIDER; MINSLIDER 0; MAXSLIDER 1; MIN 0; STEP 0.01; }
			REAL PARAM_SMOOTH_NOISE_DETAIL{EDITPORT; INPORT; CUSTOMGUI REALSLIDER; MINSLIDER 0; MAXSLIDER 1; STEP 0.01; }
			REAL PARAM_DUST_INTENSITY{EDITPORT; INPORT; CUSTOMGUI REALSLIDER; MINSLIDER 0; MAXSLIDER 1; MIN 0; MAX 1; STEP 0.01; }
			COLOR PARAM_DUST_COLOR{EDITPORT; INPORT; }
			REAL PARAM_DUST_COVERAGE{EDITPORT; INPORT; CUSTOMGUI REALSLIDER; MINSLIDER 0; MAXSLIDER 1; MIN 0; MAX 1; STEP 0.01; }
			REAL PARAM_DUST_ROUGHNESS{EDITPORT; INPORT; CUSTOMGUI REALSLIDER; MINSLIDER 0; MAXSLIDER 1; MIN 0; MAX 1; STEP 0.01; }
		}
		GROUP GROUP_MISC {
		DEFAULT 1;
			REAL PARAM_TRIPLANAR_SOFTNESS{EDITPORT; INPORT; CUSTOMGUI REALSLIDER; MINSLIDER 0; MAXSLIDER 1; MIN 0; MAX 1; STEP 0.01; }
			LONG PARAM_LAYERED_MODE{ CYCLE{PARAM_LAYERED_MODE_HEIGHT_BLEND; PARAM_LAYERED_MODE_ADD; }; EDITPORT; INPORT;}
			REAL PARAM_LAYERED_SCALE{EDITPORT; INPORT; CUSTOMGUI REALSLIDER; MINSLIDER 0; MAXSLIDER 1; MIN 0; MAX 1; STEP 0.01; }
			REAL PARAM_LAYERED_PERSISTENCE{EDITPORT; INPORT; CUSTOMGUI REALSLIDER; MINSLIDER 0; MAXSLIDER 1; MIN 0; MAX 1; STEP 0.01; }
			LONG PARAM_SPACE{ CYCLE{PARAM_SPACE_WORLD; PARAM_SPACE_OBJECT; }; EDITPORT; INPORT;}
			LONG PARAM_SEED{EDITPORT; INPORT; }
		}
		MATRIX PARAM_PLACEMENTMATRIX{EDITPORT; PORTONLY; INPORT; }
		COLOR PARAM_OUTCOLOR{EDITPORT; OUTPORT;  CREATEPORT;}
		REAL PARAM_OUTALPHA{EDITPORT; OUTPORT; CUSTOMGUI REALSLIDER; MINSLIDER 0; MAXSLIDER 1; STEP 0.01;  CREATEPORT;}
		REAL PARAM_OUTROUGHNESS{EDITPORT; OUTPORT; CUSTOMGUI REALSLIDER; MINSLIDER 0; MAXSLIDER 1; STEP 0.01;  CREATEPORT;}
		REAL PARAM_OUTMETALLIC{EDITPORT; OUTPORT; CUSTOMGUI REALSLIDER; MINSLIDER 0; MAXSLIDER 1; STEP 0.01;  CREATEPORT;}
		REAL PARAM_OUTHEIGHT{EDITPORT; OUTPORT; CUSTOMGUI REALSLIDER; MINSLIDER 0; MAXSLIDER 1; STEP 0.01;  CREATEPORT;}
		COLOR PARAM_OUTTILEUV{EDITPORT; OUTPORT;  CREATEPORT;}
		COLOR PARAM_OUTTEXTUREUV{EDITPORT; OUTPORT;  CREATEPORT;}
		COLOR PARAM_OUTMASK{EDITPORT; OUTPORT;  CREATEPORT;}
	}
}
