CONTAINER dlToonGlass
{
	NAME dlToonGlass;

	INCLUDE GVbase;
	GROUP ID_GVPROPERTIES {
	DEFAULT 1;
		GROUP GROUP_REFRACTION {
		DEFAULT 1;
			COLOR PARAM_I_COLOR{EDITPORT; INPORT; }
			REAL PARAM_REFRACT_IOR{EDITPORT; INPORT; CUSTOMGUI REALSLIDER; MINSLIDER 1; MAXSLIDER 5; MIN 1; STEP 0.04; }
		}
		GROUP GROUP_OUTLINES {
		DEFAULT 1;
			GROUP GROUP_OBJECTS {
			DEFAULT 1;
				BOOL PARAM_FG_OUTLINE_OBJECTS_ENABLE{EDITPORT; INPORT;}
				COLOR PARAM_FG_OUTLINE_OBJECTS_COLOR{EDITPORT; INPORT; }
				REAL PARAM_FG_OUTLINE_OBJECTS_OPACITY{EDITPORT; INPORT; CUSTOMGUI REALSLIDER; MINSLIDER 0; MAXSLIDER 1; MIN 0; MAX 1; STEP 0.01; }
				REAL PARAM_FG_OUTLINE_OBJECTS_WIDTH{EDITPORT; INPORT; CUSTOMGUI REALSLIDER; MINSLIDER 0; MAXSLIDER 1; MIN 0; MAX 0.1; STEP 0.001; }
				LONG PARAM_FG_OUTLINE_OBJECTS_PRIORITY{EDITPORT; INPORT; }
			}
			REAL PARAM_OUTLINE_FADE{EDITPORT; INPORT; CUSTOMGUI REALSLIDER; MINSLIDER 0; MAXSLIDER 1; STEP 0.01; PORTONLY; }
		}
		CLOSURE PARAM_AOVGROUP{ EDITPORT; INPORT; PORTONLY; SCALE_H;}
		CLOSURE PARAM_OUTCOLOR{ EDITPORT; OUTPORT; PORTONLY; CREATEPORT; SCALE_H;}
	}
}
