CONTAINER dlToon
{
	NAME dlToon;

	INCLUDE GVbase;
	GROUP ID_GVPROPERTIES {
	DEFAULT 1;
		GROUP GROUP_SHADING {
		DEFAULT 1;
			COLOR PARAM_COLOR_TINT{EDITPORT; INPORT; }
			GRADIENT PARAM_COLOR_CURVE_COLORS{COLOR; EDITPORT; INPORT; }
			REAL PARAM_DIFFUSE_WEIGHT{EDITPORT; INPORT; CUSTOMGUI REALSLIDER; MINSLIDER 0; MAXSLIDER 1; MIN 0; STEP 0.01; }
			REAL PARAM_OPACITY{EDITPORT; INPORT; CUSTOMGUI REALSLIDER; MINSLIDER 0; MAXSLIDER 1; MIN 0; MAX 1; STEP 0.01; }
			REAL PARAM_SPECULAR_WEIGHT{EDITPORT; INPORT; CUSTOMGUI REALSLIDER; MINSLIDER 0; MAXSLIDER 1; MIN 0; STEP 0.01; }
			COLOR PARAM_SPECULAR_COLOR{EDITPORT; INPORT; }
			REAL PARAM_SPECULAR_ROUGHNESS{EDITPORT; INPORT; CUSTOMGUI REALSLIDER; MINSLIDER 0; MAXSLIDER 1; MIN 0; MAX 1; STEP 0.01; }
		}
		GROUP GROUP_OUTLINES {
		DEFAULT 1;
			GROUP GROUP_SILHOUETTES {
			DEFAULT 1;
				BOOL PARAM_OUTLINE_SILHOUETTES_ENABLE{EDITPORT; INPORT;}
				COLOR PARAM_OUTLINE_SILHOUETTES_COLOR{EDITPORT; INPORT; }
				BOOL PARAM_OUTLINE_SILHOUETTES_TINT_COLOR{EDITPORT; INPORT;}
				REAL PARAM_OUTLINE_SILHOUETTES_OPACITY{EDITPORT; INPORT; CUSTOMGUI REALSLIDER; MINSLIDER 0; MAXSLIDER 1; MIN 0; MAX 1; STEP 0.01; }
				REAL PARAM_OUTLINE_SILHOUETTES_WIDTH{EDITPORT; INPORT; CUSTOMGUI REALSLIDER; MINSLIDER 0; MAXSLIDER 1; MIN 0; MAX 0.1; STEP 0.001; }
				REAL PARAM_OUTLINE_SILHOUETTES_SENSITIVITY{EDITPORT; INPORT; CUSTOMGUI REALSLIDER; MINSLIDER 0.01; MAXSLIDER 10; MIN 0; MAX 1; STEP 0.0999; }
				LONG PARAM_OUTLINE_SILOUHETTES_PRIORITY{EDITPORT; INPORT; }
			}
			GROUP GROUP_FOLDS {
			DEFAULT 1;
				BOOL PARAM_OUTLINE_FOLDS_ENABLE{EDITPORT; INPORT;}
				COLOR PARAM_OUTLINE_FOLDS_COLOR{EDITPORT; INPORT; }
				BOOL PARAM_OUTLINE_FOLDS_TINT_COLOR{EDITPORT; INPORT;}
				REAL PARAM_OUTLINE_FOLDS_OPACITY{EDITPORT; INPORT; CUSTOMGUI REALSLIDER; MINSLIDER 0; MAXSLIDER 1; MIN 0; MAX 1; STEP 0.01; }
				REAL PARAM_OUTLINE_FOLDS_WIDTH{EDITPORT; INPORT; CUSTOMGUI REALSLIDER; MINSLIDER 0; MAXSLIDER 1; MIN 0; MAX 0.1; STEP 0.001; }
				REAL PARAM_OUTLINE_FOLDS_SENSITIVITY{EDITPORT; INPORT; CUSTOMGUI REALSLIDER; MINSLIDER 0; MAXSLIDER 1; MIN 0; MAX 3; STEP 0.03; }
				LONG PARAM_OUTLINE_FOLDS_PRIORITY{EDITPORT; INPORT; }
			}
			GROUP GROUP_CREASES {
			DEFAULT 1;
				BOOL PARAM_OUTLINE_CREASES_ENABLE{EDITPORT; INPORT;}
				COLOR PARAM_OUTLINE_CREASES_COLOR{EDITPORT; INPORT; }
				BOOL PARAM_OUTLINE_CREASES_TINT_COLOR{EDITPORT; INPORT;}
				REAL PARAM_OUTLINE_CREASES_OPACITY{EDITPORT; INPORT; CUSTOMGUI REALSLIDER; MINSLIDER 0; MAXSLIDER 1; MIN 0; MAX 1; STEP 0.01; }
				REAL PARAM_OUTLINE_CREASES_WIDTH{EDITPORT; INPORT; CUSTOMGUI REALSLIDER; MINSLIDER 0; MAXSLIDER 1; MIN 0; MAX 0.1; STEP 0.001; }
				LONG PARAM_OUTLINE_CREASES_PRIORITY{EDITPORT; INPORT; }
			}
			GROUP GROUP_OBJECTS {
			DEFAULT 1;
				BOOL PARAM_OUTLINE_OBJECTS_ENABLE{EDITPORT; INPORT;}
				COLOR PARAM_OUTLINE_OBJECTS_COLOR{EDITPORT; INPORT; }
				BOOL PARAM_OUTLINE_OBJECTS_TINT_COLOR{EDITPORT; INPORT;}
				REAL PARAM_OUTLINE_OBJECTS_OPACITY{EDITPORT; INPORT; CUSTOMGUI REALSLIDER; MINSLIDER 0; MAXSLIDER 1; MIN 0; MAX 1; STEP 0.01; }
				REAL PARAM_OUTLINE_OBJECTS_WIDTH{EDITPORT; INPORT; CUSTOMGUI REALSLIDER; MINSLIDER 0; MAXSLIDER 1; MIN 0; MAX 0.1; STEP 0.001; }
				LONG PARAM_OUTLINE_OBJECTS_PRIORITY{EDITPORT; INPORT; }
			}
			GROUP GROUP_TEXTURE {
			DEFAULT 1;
				BOOL PARAM_OUTLINE_TEXTURE_ENABLE{EDITPORT; INPORT;}
				COLOR PARAM_OUTLINE_TEXTURE_SOURCE{EDITPORT; INPORT; }
				COLOR PARAM_OUTLINE_TEXTURE_COLOR{EDITPORT; INPORT; }
				BOOL PARAM_OUTLINE_TEXTURE_TINT_COLOR{EDITPORT; INPORT;}
				REAL PARAM_OUTLINE_TEXTURE_OPACITY{EDITPORT; INPORT; CUSTOMGUI REALSLIDER; MINSLIDER 0; MAXSLIDER 1; MIN 0; MAX 1; STEP 0.01; }
				REAL PARAM_OUTLINE_TEXTURE_WIDTH{EDITPORT; INPORT; CUSTOMGUI REALSLIDER; MINSLIDER 0; MAXSLIDER 1; MIN 0; MAX 0.1; STEP 0.001; }
				REAL PARAM_OUTLINE_TEXTURE_SENSITIVITY{EDITPORT; INPORT; CUSTOMGUI REALSLIDER; MINSLIDER 0; MAXSLIDER 1; MIN 0; MAX 3; STEP 0.03; }
				LONG PARAM_OUTLINE_TEXTURE_PRIORITY{EDITPORT; INPORT; }
			}
			GROUP GROUP_BACKFACES {
			DEFAULT 1;
				BOOL PARAM_ENABLE_BACKFACING_OUTLINES{EDITPORT; INPORT;}
			}
			REAL PARAM_OUTLINE_FADE{EDITPORT; INPORT; CUSTOMGUI REALSLIDER; MINSLIDER 0; MAXSLIDER 1; STEP 0.01; PORTONLY; }
		}
		GROUP GROUP_INCANDESCENCE {
		DEFAULT 1;
			COLOR PARAM_INCANDESCENCE{EDITPORT; INPORT; }
			REAL PARAM_INCANDESCENCE_INTENSITY{EDITPORT; INPORT; CUSTOMGUI REALSLIDER; MINSLIDER 0; MAXSLIDER 10; MIN 0; STEP 0.1; }
		}
		GROUP GROUP_BUMP___NORMAL___DISPLACEMENT_MAP {
		DEFAULT 1;
			LONG PARAM_DISP_NORMAL_BUMP_TYPE{ CYCLE{PARAM_DISP_NORMAL_BUMP_TYPE_BUMP_MAP; PARAM_DISP_NORMAL_BUMP_TYPE_NORMAL_MAP__DIRECTX_; PARAM_DISP_NORMAL_BUMP_TYPE_NORMAL_MAP__OPENGL_; PARAM_DISP_NORMAL_BUMP_TYPE_DISPLACEMENT__0_0_CENTERED_; PARAM_DISP_NORMAL_BUMP_TYPE_DISPLACEMENT__0_5_CENTERED_; }; EDITPORT; INPORT;}
			COLOR PARAM_DISP_NORMAL_BUMP_VALUE{EDITPORT; INPORT; }
			REAL PARAM_DISP_NORMAL_BUMP_INTENSITY{EDITPORT; INPORT; CUSTOMGUI REALSLIDER; MINSLIDER 0; MAXSLIDER 1; STEP 0.01; }
		}
		GROUP GROUP_GEOMETRY {
		DEFAULT 1;
			REAL PARAM_OCCLUSION_DISTANCE{EDITPORT; INPORT; CUSTOMGUI REALSLIDER; MINSLIDER 0; MAXSLIDER 1; STEP 0.01; }
		}
		REAL PARAM_REFRACT_WEIGHT{EDITPORT; INPORT; CUSTOMGUI REALSLIDER; MINSLIDER 0; MAXSLIDER 1; STEP 0.01; PORTONLY; }
		COLOR PARAM_REFRACT_COLOR{EDITPORT; INPORT;  PORTONLY; }
		REAL PARAM_REFRACT_IOR{EDITPORT; INPORT; CUSTOMGUI REALSLIDER; MINSLIDER 0; MAXSLIDER 1; STEP 0.01; PORTONLY; }
		LONG PARAM_OUTLINE_ALPHA_ENABLE{EDITPORT; INPORT; }
		COLOR PARAM_OUTLINE_ALPHA_COLOR{EDITPORT; INPORT;  PORTONLY; }
		LONG PARAM_OUTLINE_ALPHA_TINT_COLOR{EDITPORT; INPORT; }
		REAL PARAM_OUTLINE_ALPHA_OPACITY{EDITPORT; INPORT; CUSTOMGUI REALSLIDER; MINSLIDER 0; MAXSLIDER 1; STEP 0.01; PORTONLY; }
		REAL PARAM_OUTLINE_ALPHA_WIDTH{EDITPORT; INPORT; CUSTOMGUI REALSLIDER; MINSLIDER 0; MAXSLIDER 1; STEP 0.01; PORTONLY; }
		REAL PARAM_OUTLINE_ALPHA_SENSITIVITY{EDITPORT; INPORT; CUSTOMGUI REALSLIDER; MINSLIDER 0; MAXSLIDER 1; STEP 0.01; PORTONLY; }
		LONG PARAM_OUTLINE_ALPHA_PRIORITY{EDITPORT; INPORT; }
		COLOR PARAM_INCANDESCENCE_MULTIPLIER{EDITPORT; INPORT;  PORTONLY; }
		CLOSURE PARAM_AOVGROUP{ EDITPORT; INPORT; PORTONLY; SCALE_H;}
		CLOSURE PARAM_PHYSICAL_LAYER{ EDITPORT; INPORT; PORTONLY; SCALE_H;}
		CLOSURE PARAM_OUTCOLOR{ EDITPORT; OUTPORT; PORTONLY; CREATEPORT; SCALE_H;}
	}
}
