CONTAINER dlWorleyNoise
{
	NAME dlWorleyNoise;

	INCLUDE GVbase;
	GROUP ID_GVPROPERTIES {
	DEFAULT 1;
		GROUP GROUP_WORLEY {
		DEFAULT 1;
			LONG PARAM_OUTPUT_TYPE{ CYCLE{PARAM_OUTPUT_TYPE_VORONOI_1__F1_; PARAM_OUTPUT_TYPE_VORONOI_2__F2_; PARAM_OUTPUT_TYPE_VORONOI_3__F2___F1_; PARAM_OUTPUT_TYPE_VORONOI_4__F1_P_F2_; }; EDITPORT; INPORT;}
			LONG PARAM_DISTANCE_TYPE{ CYCLE{PARAM_DISTANCE_TYPE_EUCLIDEAN; PARAM_DISTANCE_TYPE_MANHATTAN; PARAM_DISTANCE_TYPE_CHEBYSHEV; PARAM_DISTANCE_TYPE_MINKOWSKI; }; EDITPORT; INPORT;}
			REAL PARAM_MINKOWSKI_N{EDITPORT; INPORT; CUSTOMGUI REALSLIDER; MINSLIDER 0; MAXSLIDER 100; MIN 0; MAX 100; STEP 1; }
			REAL PARAM_SCALE{EDITPORT; INPORT; CUSTOMGUI REALSLIDER; MINSLIDER 0; MAXSLIDER 1; MIN 0; STEP 0.01; }
			REAL PARAM_DENSITY{EDITPORT; INPORT; CUSTOMGUI REALSLIDER; MINSLIDER 0; MAXSLIDER 1; MIN 0; MAX 1; STEP 0.01; }
			REAL PARAM_RANDOM_POS{EDITPORT; INPORT; CUSTOMGUI REALSLIDER; MINSLIDER 0; MAXSLIDER 1; MIN 0; MAX 1; STEP 0.01; }
			REAL PARAM_I_TIME{EDITPORT; INPORT; CUSTOMGUI REALSLIDER; MINSLIDER 0; MAXSLIDER 10; MIN 0; STEP 0.1; }
			LONG PARAM_SPACE{ CYCLE{PARAM_SPACE_WORLD; PARAM_SPACE_OBJECT; }; EDITPORT; INPORT;}
		}
		GROUP GROUP_COLORS {
		DEFAULT 1;
			GRADIENT PARAM_COLOR_IN_CELL_COLORVALUE{COLOR; EDITPORT; INPORT; }
			GRADIENT PARAM_COLOR_ACROSS_CELL_COLORVALUE{COLOR; EDITPORT; INPORT; }
			COLOR PARAM_COLOR_EDGE{EDITPORT; INPORT; }
			COLOR PARAM_COLOR_BG{EDITPORT; INPORT; }
			LONG PARAM_COLOR_BLEND_MODE{ CYCLE{PARAM_COLOR_BLEND_MODE_OVER; PARAM_COLOR_BLEND_MODE_ADD; PARAM_COLOR_BLEND_MODE_LIGHTEN__MAX_; PARAM_COLOR_BLEND_MODE_MULTIPLY; PARAM_COLOR_BLEND_MODE_DARKEN__MIN_; PARAM_COLOR_BLEND_MODE_OVERLAY; PARAM_COLOR_BLEND_MODE_DIFFERENCE; }; EDITPORT; INPORT;}
		}
		GROUP GROUP_DISTORTION {
		DEFAULT 1;
			COLOR PARAM_DISTORTION{EDITPORT; INPORT; }
			REAL PARAM_DISTORTION_INTENSITY{EDITPORT; INPORT; CUSTOMGUI REALSLIDER; MINSLIDER 0; MAXSLIDER 1; STEP 0.01; }
		}
		GROUP GROUP_BORDERS {
		DEFAULT 1;
			REAL PARAM_BORDER_THICKNESS{EDITPORT; INPORT; CUSTOMGUI REALSLIDER; MINSLIDER 0; MAXSLIDER 1; MIN 0; MAX 1; STEP 0.01; }
			REAL PARAM_BORDER_SMOOTHNESS{EDITPORT; INPORT; CUSTOMGUI REALSLIDER; MINSLIDER 0; MAXSLIDER 1; MIN 0; MAX 1; STEP 0.01; }
		}
		GROUP GROUP_LAYERS {
		DEFAULT 1;
			LONG PARAM_LAYERS{EDITPORT; INPORT; }
			REAL PARAM_LAYER_PERSISTENCE{EDITPORT; INPORT; CUSTOMGUI REALSLIDER; MINSLIDER 0; MAXSLIDER 1; MIN 0; STEP 0.01; }
			REAL PARAM_LAYER_SCALE{EDITPORT; INPORT; CUSTOMGUI REALSLIDER; MINSLIDER 0; MAXSLIDER 1; MIN 0; STEP 0.01; }
			REAL PARAM_LAYER_DENSITY{EDITPORT; INPORT; CUSTOMGUI REALSLIDER; MINSLIDER 0; MAXSLIDER 2; MIN 0; STEP 0.02; }
		}
		GROUP GROUP_ADJUST {
		DEFAULT 1;
			REAL PARAM_AMPLITUDE{EDITPORT; INPORT; CUSTOMGUI REALSLIDER; MINSLIDER 0; MAXSLIDER 1; MIN 0; STEP 0.01; }
			REAL PARAM_CONTRAST{EDITPORT; INPORT; CUSTOMGUI REALSLIDER; MINSLIDER 0; MAXSLIDER 1; MIN 0; STEP 0.01; }
			BOOL PARAM_INVERT{EDITPORT; INPORT;}
		}
		MATRIX PARAM_PLACEMENTMATRIX{EDITPORT; PORTONLY; INPORT; }
		COLOR PARAM_OUTCOLOR{EDITPORT; OUTPORT;  CREATEPORT;}
		REAL PARAM_OUTALPHA{EDITPORT; OUTPORT; CUSTOMGUI REALSLIDER; MINSLIDER 0; MAXSLIDER 1; STEP 0.01;  CREATEPORT;}
	}
}
