CONTAINER Oplace3dtexturewidget
{
	NAME Oplace3dtexturewidget;
	INCLUDE Obase;

	GROUP ID_OBJECTPROPERTIES
	{
		DEFAULT 1;
		REAL SIZE_X{UNIT METER; MIN 0.0;}
		REAL SIZE_Y{UNIT METER; MIN 0.0;}
		REAL SIZE_Z{UNIT METER; MIN 0.0;}
		
	}
}
