CONTAINER Place3DTexture
{
	NAME Place3DTexture;

	INCLUDE GVbase;
	GROUP ID_GVPROPERTIES {
	DEFAULT 1;
		COLUMNS 2;
		MATRIX OUT{EDITPORT; PORTONLY; OUTPORT;  CREATEPORT;}
		LINK WIDGET{ ANIM OFF; ACCEPT { 1064567; }}
		BUTTON CREATE_WIDGET{}
		LONG MODE{ CYCLE{MODE_NORMAL; MODE_CENTERED;}; }
		LONG CHECKSUM{HIDDEN;}
	}
}
