CONTAINER Mnodematerial
{
	INCLUDE Mpreview;
	INCLUDE Mbase;
	
	GROUP Obaselist
	{
		BOOL MATERIAL_PAGE_PROPERTIES { HIDDEN; PAGE; PARENTMSG ID_MATERIALPROPERTIES; }
		
	}
	
	GROUP ID_MATERIALPROPERTIES
	{
		DEFAULT 1;
		BUTTON OPEN_GRAPH_EDITOR{}
	}
	
	INCLUDE Massign;
}