CONTAINER Tvisibility
{
	NAME Tvisibility;
	INCLUDE Tbase;
	
	GROUP VISIBILITY_GROUP
	{
		BOOL VISIBLE_TO_CAMERA{}
		BOOL VISIBLE_IN_DIFFUSE {}
		BOOL VISIBLE_IN_REFLECTION {}
		BOOL VISIBLE_IN_REFRACTION {}
		BOOL CASTS_SHADOWS {}
		
		LONG COMPOSITING_OPTIONS
		{
			CYCLE
			{
				COMPOSITING_REGULAR_OPTION;
				COMPOSITING_MATTE_OPTION;
				COMPOSITING_PRELIT_OPTION;
			}
		}

		SEPARATOR{ LINE;}
			
	}
	
	
}
