CONTAINER Oenvironmentlight
{
	NAME Oenvironmentlight;
	INCLUDE Obase;

	GROUP ENVIRONMENT_LIGHT
	{
		DEFAULT 1;
		SEPARATOR{LINE;}
		
		GROUP
		{
			COLUMNS 2;
			
			FILENAME ENVIRONMENT_TEXTURE_NAME{}
			SEPARATOR{}
			
			LONG ENVIRONMENT_MAPPING
			{
				CYCLE
				{
					ENVIRONMENT_MAPPING_SPHERICAL;
					ENVIRONMENT_MAPPING_ANGULAR;
				}
			}
			SEPARATOR{}
			
			
			REAL ENVIRONMENT_INTENSITY	{SCALE_H; MIN 0; MINSLIDER 0; MAXSLIDER 10; STEP 0.01; CUSTOMGUI REALSLIDER;}
			SEPARATOR{}
			//SHADERLINK ENVIRONMENT_INTENSITY_SHADER	{HIDDEN;}
			//SHADERLINK ENVIRONMENT_INTENSITY_SHADER_TEMP{HIDDEN;}
			//POPUP POPUP_ENVIRONMENT_INTENSITY{SCALE_V;}
			
			REAL ENVIRONMENT_EXPOSURE{SCALE_H; MINSLIDER -5; MAXSLIDER 5; STEP 0.01; CUSTOMGUI REALSLIDER;}
			SEPARATOR{}
			//SHADERLINK ENVIRONMENT_EXPOSURE_SHADER{HIDDEN;}
			//SHADERLINK ENVIRONMENT_EXPOSURE_SHADER_TEMP{HIDDEN;}
			//POPUP POPUP_ENVIRONMENT_EXPOSURE{SCALE_V;}
			
			//COLOR ENVIRONMENT_TEXTURE{}
			//SEPARATOR{}
			//SHADERLINK ENVIRONMENT_TEXTURE_SHADER{HIDDEN;}
			//SHADERLINK ENVIRONMENT_TEXTURE_SHADER_TEMP{HIDDEN;}
			//POPUP POPUP_ENVIRONMENT_TEXTURE{SCALE_V;}
			
			COLOR ENVIRONMENT_TINT {}
			SEPARATOR{}
			//SHADERLINK ENVIRONMENT_TINT_SHADER{HIDDEN;}
			//SHADERLINK ENVIRONMENT_TINT_SHADER_TEMP{HIDDEN;}
			//POPUP POPUP_ENVIRONMENT_TINT{SCALE_V;}
		
					
			STATICTEXT {}
			STATICTEXT {}
			
			
			
			BOOL ENVIRONMENT_SEEN_BY_CAMERA{}
			SEPARATOR{}
			
			BOOL ENVIRONMENT_PRELIT{}
			SEPARATOR{}
			
			REAL ENVIRONMENT_RADIUS 	{MIN 0; MINSLIDER 0; MAXSLIDER 10000; CUSTOMGUI REALSLIDER;}
			SEPARATOR{}
		}
		GROUP
		{
			STATICTEXT{}
			SEPARATOR LIGHT_LINKING{}
			BOOL ENVIRONMENT_ILLUMINATES_BY_DEFAULT{}
		}
	}
}
