CONTAINER Opointlight
{
	NAME Opointlight;
	INCLUDE Obase;

	GROUP POINT_LIGHT
	{
		DEFAULT 1;
		SEPARATOR{LINE;}
		GROUP
		{		
			COLUMNS 2;
			COLOR POINTLIGHT_COLOR{SCALE_H;}
			SEPARATOR{}
			//SHADERLINK POINTLIGHT_COLOR_SHADER{ANIM OFF;HIDDEN;}
			//SHADERLINK POINTLIGHT_COLOR_SHADER_TEMP{ANIM OFF;HIDDEN;}
			//POPUP POPUP_POINTLIGHT_COLOR{SCALE_V;}
			
			REAL POINTLIGHT_INTENSITY {MIN 0; MINSLIDER 0; MAXSLIDER 10; STEP 0.01; CUSTOMGUI REALSLIDER;}
			SEPARATOR{}
			//REAL POINTLIGHT_INTENSITY	{SCALE_H; MIN 0; MINSLIDER 0; MAXSLIDER 100; CUSTOMGUI REALSLIDER;}
			//SHADERLINK POINTLIGHT_INTENSITY_SHADER	{ANIM OFF;HIDDEN;}
			//SHADERLINK POINTLIGHT_INTENSITY_SHADER_TEMP	{ANIM OFF;HIDDEN;}
			//POPUP POPUP_POINTLIGHT_INTENSITY{SCALE_V;}
			
			LONG POINTLIGHT_DECAY
			{
				CYCLE
				{
					POINTLIGHT_DECAY_NODECAY;
					POINTLIGHT_DECAY_LINEAR;
					POINTLIGHT_DECAY_QUADRATIC;
					POINTLIGHT_DECAY_CUBIC;
				}
			}
			SEPARATOR{}
			
			//REAL POINTLIGHT_EXPOSURE {MINSLIDER 0; MIN 0; MAXSLIDER 6.0; CUSTOMGUI REALSLIDER;}
			REAL POINTLIGHT_EXPOSURE {MINSLIDER -5.0; MAXSLIDER 5.0; STEP 0.01; CUSTOMGUI REALSLIDER;}
			SEPARATOR{}
			REAL POINTLIGHT_RADIUS	   {UNIT METER; MIN 0.0; MAXSLIDER 10.0;}
			SEPARATOR{}
			BOOL POINTLIGHT_SEEN_BY_CAMERA{}
			SEPARATOR{}
		}
		
		
		GROUP 
		{
			COLUMNS 2;
			STATICTEXT{}
			STATICTEXT{}
			SEPARATOR POINTLIGHT_CONTRIBUTION{}
			STATICTEXT{}
			
			REAL POINTLIGHT_DIFFUSE {MIN 0; MINSLIDER 0; MAXSLIDER 10; MAX 100; STEP 0.01; CUSTOMGUI REALSLIDER;}
			SEPARATOR{}
			
			REAL POINTLIGHT_SPECULAR {MIN 0; MINSLIDER 0; MAXSLIDER 10; MAX 100; STEP 0.01; CUSTOMGUI REALSLIDER;}
			SEPARATOR{}
			
			REAL POINTLIGHT_HAIR {MIN 0; MINSLIDER 0; MAXSLIDER 10; MAX 100; STEP 0.01; CUSTOMGUI REALSLIDER;}
			SEPARATOR{}
			
			REAL POINTLIGHT_VOLUME {MIN 0; MINSLIDER 0; MAXSLIDER 10; MAX 100; STEP 0.01; CUSTOMGUI REALSLIDER;}
			SEPARATOR{}
		}
		
		GROUP
		{
			STATICTEXT{}
			SEPARATOR POINTLIGHT_FILTERS{}
			SEPARATOR{}
			SCALE_H;
			LIGHTFILTERSTCUSTOMTYPE DL_CUSTOM_POINTLIGHT_FILTERS
			{
				CUSTOMGUI LIGHTFILTERSCUSTOMGUI;
			}
			
		}
		
	}
}
